%!PS-Adobe-3.0
%%Title: cosine3.log
%%For: donquijote
%%Creator: VIM - Vi IMproved 7.2 (2008 Aug 9)
%%CreationDate: Thu Jan 14 21:42:10 2010
%%DocumentData: Clean8Bit
%%Orientation: Portrait
%%Pages: (atend)
%%PageOrder: Ascend
%%BoundingBox: 59 49 564 800
%%DocumentMedia: A4 595 842 0 () ()
%%DocumentNeededResources: font Courier
%%+ font Courier-Bold
%%+ font Courier-Oblique
%%+ font Courier-BoldOblique
%%DocumentSuppliedResources: procset VIM-Prolog 1.4 1
%%+ encoding VIM-iso-8859-15 1.0 0
%%Requirements: duplex collate
%%EndComments
%%BeginDefaults
%%PageResources: font Courier
%%+ font Courier-Bold
%%+ font Courier-Oblique
%%+ font Courier-BoldOblique
%%PageMedia: A4
%%EndDefaults
%%BeginProlog
%%BeginResource: procset VIM-Prolog
%%BeginDocument: /usr/share/vim/vim72/print/prolog.ps
%!PS-Adobe-3.0 Resource-ProcSet
%%Title: VIM-Prolog
%%Version: 1.4 1
%%EndComments
% Editing of this file is NOT RECOMMENDED.  You run a very good risk of causing
% all PostScript printing from VIM failing if you do.  PostScript is not called
% a write-only language for nothing!
/packedarray where not{userdict begin/setpacking/pop load def/currentpacking
false def end}{pop}ifelse/CP currentpacking def true setpacking
/bd{bind def}bind def/ld{load def}bd/ed{exch def}bd/d/def ld
/db{dict begin}bd/cde{currentdict end}bd
/T true d/F false d
/SO null d/sv{/SO save d}bd/re{SO restore}bd
/L2 systemdict/languagelevel 2 copy known{get exec}{pop pop 1}ifelse 2 ge d
/m/moveto ld/s/show ld /ms{m s}bd /g/setgray ld/r/setrgbcolor ld/sp{showpage}bd
/gs/gsave ld/gr/grestore ld/cp/currentpoint ld
/ul{gs UW setlinewidth cp UO add 2 copy newpath m 3 1 roll add exch lineto
stroke gr}bd
/bg{gs r cp BO add 4 -2 roll rectfill gr}bd
/sl{90 rotate 0 exch translate}bd
L2{
/sspd{mark exch{setpagedevice}stopped cleartomark}bd
/nc{1 db/NumCopies ed cde sspd}bd
/sps{3 db/Orientation ed[3 1 roll]/PageSize ed/ImagingBBox null d cde sspd}bd
/dt{2 db/Tumble ed/Duplex ed cde sspd}bd
/c{1 db/Collate ed cde sspd}bd
}{
/nc{/#copies ed}bd
/sps{statusdict/setpage get exec}bd
/dt{statusdict/settumble 2 copy known{get exec}{pop pop pop}ifelse
statusdict/setduplexmode 2 copy known{get exec}{pop pop pop}ifelse}bd
/c{pop}bd
}ifelse
/ffs{findfont exch scalefont d}bd/sf{setfont}bd
/ref{1 db findfont dup maxlength dict/NFD ed{exch dup/FID ne{exch NFD 3 1 roll
put}{pop pop}ifelse}forall/Encoding findresource dup length 256 eq{NFD/Encoding
3 -1 roll put}{pop}ifelse NFD dup/FontType get 3 ne{/CharStrings}{/CharProcs}
ifelse 2 copy known{2 copy get dup maxlength dict copy[/questiondown/space]{2
copy known{2 copy get 2 index/.notdef 3 -1 roll put pop exit}if pop}forall put
}{pop pop}ifelse dup NFD/FontName 3 -1 roll put NFD definefont pop end}bd
CP setpacking
(\004)cvn{}bd
% vim:ff=unix:
%%EOF
%%EndDocument
%%EndResource
%%BeginResource: encoding VIM-iso-8859-15
%%BeginDocument: /usr/share/vim/vim72/print/iso-8859-15.ps
%!PS-Adobe-3.0 Resource-Encoding
%%Title: VIM-iso-8859-15
%%Version: 1.0 0
%%EndComments
/VIM-iso-8859-15[
/.notdef /.notdef /.notdef /.notdef /.notdef /.notdef /.notdef /.notdef
/.notdef /.notdef /.notdef /.notdef /.notdef /.notdef /.notdef /.notdef
/.notdef /.notdef /.notdef /.notdef /.notdef /.notdef /.notdef /.notdef
/.notdef /.notdef /.notdef /.notdef /.notdef /.notdef /.notdef /.notdef
/space /exclam /quotedbl /numbersign /dollar /percent /ampersand /quotesingle
/parenleft /parenright /asterisk /plus /comma /minus /period /slash
/zero /one /two /three /four /five /six /seven
/eight /nine /colon /semicolon /less /equal /greater /question
/at /A /B /C /D /E /F /G
/H /I /J /K /L /M /N /O
/P /Q /R /S /T /U /V /W
/X /Y /Z /bracketleft /backslash /bracketright /asciicircum /underscore
/grave /a /b /c /d /e /f /g
/h /i /j /k /l /m /n /o
/p /q /r /s /t /u /v /w
/x /y /z /braceleft /bar /braceright /asciitilde /.notdef
/.notdef /.notdef /.notdef /.notdef /.notdef /.notdef /.notdef /.notdef
/.notdef /.notdef /.notdef /.notdef /.notdef /.notdef /.notdef /.notdef
/.notdef /.notdef /.notdef /.notdef /.notdef /.notdef /.notdef /.notdef
/.notdef /.notdef /.notdef /.notdef /.notdef /.notdef /.notdef /.notdef
/space /exclamdown /cent /sterling /Euro /yen /Scaron /section
/scaron /copyright /ordfeminine /guillemotleft /logicalnot /hyphen /registered /macron
/degree /plusminus /twosuperior /threesuperior /Zcaron /mu /paragraph /periodcentered
/zcaron /onesuperior /ordmasculine /guillemotright /OE /oe /Ydieresis /questiondown
/Agrave /Aacute /Acircumflex /Atilde /Adieresis /Aring /AE /Ccedilla
/Egrave /Eacute /Ecircumflex /Edieresis /Igrave /Iacute /Icircumflex /Idieresis
/Eth /Ntilde /Ograve /Oacute /Ocircumflex /Otilde /Odieresis /multiply
/Oslash /Ugrave /Uacute /Ucircumflex /Udieresis /Yacute /Thorn /germandbls
/agrave /aacute /acircumflex /atilde /adieresis /aring /ae /ccedilla
/egrave /eacute /ecircumflex /edieresis /igrave /iacute /icircumflex /idieresis
/eth /ntilde /ograve /oacute /ocircumflex /otilde /odieresis /divide
/oslash /ugrave /uacute /ucircumflex /udieresis /yacute /thorn /ydieresis]
/Encoding defineresource pop
% vim:ff=unix:
%%EOF
%%EndDocument
%%EndResource
%%EndProlog
%%BeginSetup
595 842 0 sps
1 nc
T F dt
T c
%%IncludeResource: font Courier
/_F0 /VIM-iso-8859-15 /Courier ref
/F0 10 /_F0 ffs
%%IncludeResource: font Courier-Bold
/_F1 /VIM-iso-8859-15 /Courier-Bold ref
/F1 10 /_F1 ffs
%%IncludeResource: font Courier-Oblique
/_F2 /VIM-iso-8859-15 /Courier-Oblique ref
/F2 10 /_F2 ffs
%%IncludeResource: font Courier-BoldOblique
/_F3 /VIM-iso-8859-15 /Courier-BoldOblique ref
/F3 10 /_F3 ffs
/UO -1 d
/UW 0.5 d
/BO -2.5 d
%%EndSetup
%%Page: 1 1
%%BeginPageSetup
sv
0 g
F0 sf
%%EndPageSetup
F1 sf
(cosine3.log                                                                   Page 1)59.5 792.4 ms
F0 sf
(__________T1+ abstract__________)59.5 772.4 ms
(x := 90 + 90.\(x0\))59.5 762.4 ms
(y := [-oo,+oo])59.5 742.4 ms
(empty array of constraints)59.5 722.4 ms
(__________)59.5 712.4 ms
(######## if \(x <= 45\) ########)59.5 702.4 ms
(__________T1+ abstract__________)59.5 692.4 ms
(x := 90 + 90.\(x0\))59.5 682.4 ms
(y := [-oo,+oo])59.5 662.4 ms
(array of constraints of size 2)59.5 642.4 ms
( 0: x0 + 1 >= 0)59.5 632.4 ms
( 1: -x0 - 0.5 >= 0)59.5 622.4 ms
(__________)59.5 612.4 ms
(######## if \(x <= 45\) y = 1 - 0.006508738196*x ########)59.5 602.4 ms
(__________T1+ abstract__________)59.5 592.4 ms
(x := 90 + 90.\(x0\))59.5 582.4 ms
(y := 0.41421356235999995388 + -0.58578643764000004612.\(x0\) + 1.1102230246251565404e-)59.5 562.4 ms
(16.\(x1\))59.5 552.4 ms
(array of constraints of size 2)59.5 532.4 ms
( 0: x0 + 1 >= 0)59.5 522.4 ms
( 1: -x0 - 0.5 >= 0)59.5 512.4 ms
(__________)59.5 502.4 ms
(######## else du if \(x <= 45\) ########)59.5 492.4 ms
(__________T1+ abstract__________)59.5 482.4 ms
(x := 90 + 90.\(x0\))59.5 472.4 ms
(y := [-oo,+oo])59.5 452.4 ms
(array of constraints of size 4)59.5 432.4 ms
( 0: x0 + 0.5 >= 0)59.5 422.4 ms
( 1: -x0 + 1 >= 0)59.5 412.4 ms
( 2: x1 + 1 >= 0)59.5 402.4 ms
( 3: -x1 + 1 >= 0)59.5 392.4 ms
(__________)59.5 382.4 ms
(######## if \(x <= 90\) ########)59.5 372.4 ms
(__________T1+ abstract__________)59.5 362.4 ms
(x := 90 + 90.\(x0\))59.5 352.4 ms
(y := [-oo,+oo])59.5 332.4 ms
(array of constraints of size 4)59.5 312.4 ms
( 0: x0 + 0.5 >= 0)59.5 302.4 ms
( 1: -x0 >= 0)59.5 292.4 ms
( 2: x1 + 1 >= 0)59.5 282.4 ms
( 3: -x1 + 1 >= 0)59.5 272.4 ms
(__________)59.5 262.4 ms
(######## if \(x <= 90\) y = 1 - 0.00017644492*x*x + 0.000000588757*x*x*x; ########)59.5 252.4 ms
(__________T1+ abstract__________)59.5 242.4 ms
(x := 90 + 90.\(x0\))59.5 232.4 ms
(y := 0.011131070359374772849 + -1.4061116556562500701.\(x0\) + 0.074841016289063366784)59.5 212.4 ms
(.\(x2\))59.5 202.4 ms
(array of constraints of size 4)59.5 182.4 ms
( 0: x0 + 0.5 >= 0)59.5 172.4 ms
( 1: -x0 >= 0)59.5 162.4 ms
( 2: x1 + 1 >= 0)59.5 152.4 ms
( 3: -x1 + 1 >= 0)59.5 142.4 ms
(__________)59.5 132.4 ms
(######## else du if \(x <= 90\) ########)59.5 122.4 ms
(__________T1+ abstract__________)59.5 112.4 ms
(x := 90 + 90.\(x0\))59.5 102.4 ms
(y := [-oo,+oo])59.5 82.4 ms
(array of constraints of size 6)59.5 62.4 ms
( 0: x0 >= 0)59.5 52.4 ms
re sp
%%PageTrailer
%%Page: 2 2
%%BeginPageSetup
sv
0 g
F0 sf
%%EndPageSetup
F1 sf
(cosine3.log                                                                   Page 2)59.5 792.4 ms
F0 sf
( 1: -x0 + 1 >= 0)59.5 772.4 ms
( 2: x1 + 1 >= 0)59.5 762.4 ms
( 3: -x1 + 1 >= 0)59.5 752.4 ms
( 4: x2 + 1 >= 0)59.5 742.4 ms
( 5: -x2 + 1 >= 0)59.5 732.4 ms
(__________)59.5 722.4 ms
(######## if \(x <= 135\) ########)59.5 712.4 ms
(__________T1+ abstract__________)59.5 702.4 ms
(x := 90 + 90.\(x0\))59.5 692.4 ms
(y := [-oo,+oo])59.5 672.4 ms
(array of constraints of size 6)59.5 652.4 ms
( 0: x0 >= 0)59.5 642.4 ms
( 1: -x0 + 0.5 >= 0)59.5 632.4 ms
( 2: x1 + 1 >= 0)59.5 622.4 ms
( 3: -x1 + 1 >= 0)59.5 612.4 ms
( 4: x2 + 1 >= 0)59.5 602.4 ms
( 5: -x2 + 1 >= 0)59.5 592.4 ms
(__________)59.5 582.4 ms
(######## if \(x <= 135\) y = 1.283184584 - 0.0062929908*x - 0.00014148386*x*x +0.00000)59.5 572.4 ms
(0588757*x*x*x; ########)59.5 562.4 ms
(__________T1+ abstract__________)59.5 552.4 ms
(x := 90 + 90.\(x0\))59.5 542.4 ms
(y := -0.011131070359375216938 + -1.4061116556562502922.\(x0\) + 0.08611042858593886961)59.5 522.4 ms
(7.\(x3\))59.5 512.4 ms
(array of constraints of size 6)59.5 492.4 ms
( 0: x0 >= 0)59.5 482.4 ms
( 1: -x0 + 0.5 >= 0)59.5 472.4 ms
( 2: x1 + 1 >= 0)59.5 462.4 ms
( 3: -x1 + 1 >= 0)59.5 452.4 ms
( 4: x2 + 1 >= 0)59.5 442.4 ms
( 5: -x2 + 1 >= 0)59.5 432.4 ms
(__________)59.5 422.4 ms
(######## else if \(x <= 135\) ########)59.5 412.4 ms
(__________T1+ abstract__________)59.5 402.4 ms
(x := 90 + 90.\(x0\))59.5 392.4 ms
(y := [-oo,+oo])59.5 372.4 ms
(array of constraints of size 8)59.5 352.4 ms
( 0: x0 - 0.5 >= 0)59.5 342.4 ms
( 1: -x0 + 1 >= 0)59.5 332.4 ms
( 2: x1 + 1 >= 0)59.5 322.4 ms
( 3: -x1 + 1 >= 0)59.5 312.4 ms
( 4: x2 + 1 >= 0)59.5 302.4 ms
( 5: -x2 + 1 >= 0)59.5 292.4 ms
( 6: x3 + 1 >= 0)59.5 282.4 ms
( 7: -x3 + 1 >= 0)59.5 272.4 ms
(__________)59.5 262.4 ms
(######## else if \(x <= 135\) y = 0.17157287528 - 0.006508738196*x; ########)59.5 252.4 ms
(__________T1+ abstract__________)59.5 242.4 ms
(x := 90 + 90.\(x0\))59.5 232.4 ms
(y := -0.41421356236000000939 + -0.58578643764000004612.\(x0\) + 1.6653345369377348106e)59.5 212.4 ms
(-16.\(x4\))59.5 202.4 ms
(array of constraints of size 8)59.5 182.4 ms
( 0: x0 - 0.5 >= 0)59.5 172.4 ms
( 1: -x0 + 1 >= 0)59.5 162.4 ms
( 2: x1 + 1 >= 0)59.5 152.4 ms
( 3: -x1 + 1 >= 0)59.5 142.4 ms
( 4: x2 + 1 >= 0)59.5 132.4 ms
( 5: -x2 + 1 >= 0)59.5 122.4 ms
( 6: x3 + 1 >= 0)59.5 112.4 ms
( 7: -x3 + 1 >= 0)59.5 102.4 ms
(__________)59.5 92.4 ms
(######## if \(x <= 135\) JOIN son else ########)59.5 82.4 ms
(__________T1+ abstract__________)59.5 72.4 ms
(x := 90 + 90.\(x0\))59.5 62.4 ms
re sp
%%PageTrailer
%%Page: 3 3
%%BeginPageSetup
sv
0 g
F0 sf
%%EndPageSetup
F1 sf
(cosine3.log                                                                   Page 3)59.5 792.4 ms
F0 sf
(y := -0.16961710206671837264 + -0.58578643764000004612.\(x0\) + [u]0.24459646029328202)59.5 772.4 ms
(532.\(x5\))59.5 762.4 ms
(array of constraints of size 6)59.5 742.4 ms
( 0: x0 >= 0)59.5 732.4 ms
( 1: -x0 + 1 >= 0)59.5 722.4 ms
( 2: x1 + 1 >= 0)59.5 712.4 ms
( 3: -x1 + 1 >= 0)59.5 702.4 ms
( 4: x2 + 1 >= 0)59.5 692.4 ms
( 5: -x2 + 1 >= 0)59.5 682.4 ms
(__________)59.5 672.4 ms
(######## JOIN avec le else du if \(x <= 90\) ########)59.5 662.4 ms
(__________T1+ abstract__________)59.5 652.4 ms
(x := 90 + 90.\(x0\))59.5 642.4 ms
(y := 0.040960566648281265811 + -0.58578643764000004612.\(x0\) + [u]0.45517412900828191)59.5 622.4 ms
(358.\(x6\))59.5 612.4 ms
(array of constraints of size 4)59.5 592.4 ms
( 0: x0 + 0.5 >= 0)59.5 582.4 ms
( 1: -x0 + 1 >= 0)59.5 572.4 ms
( 2: x1 + 1 >= 0)59.5 562.4 ms
( 3: -x1 + 1 >= 0)59.5 552.4 ms
(__________)59.5 542.4 ms
(######## JOIN avec le else du if \(x <= 45\) ########)59.5 532.4 ms
(__________T1+ abstract__________)59.5 522.4 ms
(x := 90 + 90.\(x0\))59.5 512.4 ms
(y := -3.3306690738754696213e-16 + -0.42194417104687387265.\(x0\) + [u]0.57805582895312)59.5 492.4 ms
(679348.\(x7\))59.5 482.4 ms
(array of constraints of size 2)59.5 462.4 ms
( 0: x0 + 1 >= 0)59.5 452.4 ms
( 1: -x0 + 1 >= 0)59.5 442.4 ms
(__________)59.5 432.4 ms
(x : [-0.000000,180.000000])59.5 422.4 ms
(y : [-1.000000,1.000000])59.5 412.4 ms
(Box1: \(0,2\))59.5 402.4 ms
(  x     in[0,180])59.5 392.4 ms
(  y     in[-1.0000000000000011102,1.0000000000000004441])59.5 382.4 ms
(CpuTime: 0.00)59.5 372.4 ms
re sp
%%PageTrailer
%%Trailer
%%Pages: 3
%%EOF
