%!PS-Adobe-3.0
%%Title: examples/InterL10.log
%%For: donquijote
%%Creator: VIM - Vi IMproved 7.2 (2008 Aug 9)
%%CreationDate: Thu Jan 28 23:20:23 2010
%%DocumentData: Clean8Bit
%%Orientation: Portrait
%%Pages: (atend)
%%PageOrder: Ascend
%%BoundingBox: 59 49 564 800
%%DocumentMedia: A4 595 842 0 () ()
%%DocumentNeededResources: font Courier
%%+ font Courier-Bold
%%+ font Courier-Oblique
%%+ font Courier-BoldOblique
%%DocumentSuppliedResources: procset VIM-Prolog 1.4 1
%%+ encoding VIM-iso-8859-15 1.0 0
%%Requirements: duplex collate color
%%EndComments
%%BeginDefaults
%%PageResources: font Courier
%%+ font Courier-Bold
%%+ font Courier-Oblique
%%+ font Courier-BoldOblique
%%PageMedia: A4
%%EndDefaults
%%BeginProlog
%%BeginResource: procset VIM-Prolog
%%BeginDocument: /usr/share/vim/vim72/print/prolog.ps
%!PS-Adobe-3.0 Resource-ProcSet
%%Title: VIM-Prolog
%%Version: 1.4 1
%%EndComments
% Editing of this file is NOT RECOMMENDED.  You run a very good risk of causing
% all PostScript printing from VIM failing if you do.  PostScript is not called
% a write-only language for nothing!
/packedarray where not{userdict begin/setpacking/pop load def/currentpacking
false def end}{pop}ifelse/CP currentpacking def true setpacking
/bd{bind def}bind def/ld{load def}bd/ed{exch def}bd/d/def ld
/db{dict begin}bd/cde{currentdict end}bd
/T true d/F false d
/SO null d/sv{/SO save d}bd/re{SO restore}bd
/L2 systemdict/languagelevel 2 copy known{get exec}{pop pop 1}ifelse 2 ge d
/m/moveto ld/s/show ld /ms{m s}bd /g/setgray ld/r/setrgbcolor ld/sp{showpage}bd
/gs/gsave ld/gr/grestore ld/cp/currentpoint ld
/ul{gs UW setlinewidth cp UO add 2 copy newpath m 3 1 roll add exch lineto
stroke gr}bd
/bg{gs r cp BO add 4 -2 roll rectfill gr}bd
/sl{90 rotate 0 exch translate}bd
L2{
/sspd{mark exch{setpagedevice}stopped cleartomark}bd
/nc{1 db/NumCopies ed cde sspd}bd
/sps{3 db/Orientation ed[3 1 roll]/PageSize ed/ImagingBBox null d cde sspd}bd
/dt{2 db/Tumble ed/Duplex ed cde sspd}bd
/c{1 db/Collate ed cde sspd}bd
}{
/nc{/#copies ed}bd
/sps{statusdict/setpage get exec}bd
/dt{statusdict/settumble 2 copy known{get exec}{pop pop pop}ifelse
statusdict/setduplexmode 2 copy known{get exec}{pop pop pop}ifelse}bd
/c{pop}bd
}ifelse
/ffs{findfont exch scalefont d}bd/sf{setfont}bd
/ref{1 db findfont dup maxlength dict/NFD ed{exch dup/FID ne{exch NFD 3 1 roll
put}{pop pop}ifelse}forall/Encoding findresource dup length 256 eq{NFD/Encoding
3 -1 roll put}{pop}ifelse NFD dup/FontType get 3 ne{/CharStrings}{/CharProcs}
ifelse 2 copy known{2 copy get dup maxlength dict copy[/questiondown/space]{2
copy known{2 copy get 2 index/.notdef 3 -1 roll put pop exit}if pop}forall put
}{pop pop}ifelse dup NFD/FontName 3 -1 roll put NFD definefont pop end}bd
CP setpacking
(\004)cvn{}bd
% vim:ff=unix:
%%EOF
%%EndDocument
%%EndResource
%%BeginResource: encoding VIM-iso-8859-15
%%BeginDocument: /usr/share/vim/vim72/print/iso-8859-15.ps
%!PS-Adobe-3.0 Resource-Encoding
%%Title: VIM-iso-8859-15
%%Version: 1.0 0
%%EndComments
/VIM-iso-8859-15[
/.notdef /.notdef /.notdef /.notdef /.notdef /.notdef /.notdef /.notdef
/.notdef /.notdef /.notdef /.notdef /.notdef /.notdef /.notdef /.notdef
/.notdef /.notdef /.notdef /.notdef /.notdef /.notdef /.notdef /.notdef
/.notdef /.notdef /.notdef /.notdef /.notdef /.notdef /.notdef /.notdef
/space /exclam /quotedbl /numbersign /dollar /percent /ampersand /quotesingle
/parenleft /parenright /asterisk /plus /comma /minus /period /slash
/zero /one /two /three /four /five /six /seven
/eight /nine /colon /semicolon /less /equal /greater /question
/at /A /B /C /D /E /F /G
/H /I /J /K /L /M /N /O
/P /Q /R /S /T /U /V /W
/X /Y /Z /bracketleft /backslash /bracketright /asciicircum /underscore
/grave /a /b /c /d /e /f /g
/h /i /j /k /l /m /n /o
/p /q /r /s /t /u /v /w
/x /y /z /braceleft /bar /braceright /asciitilde /.notdef
/.notdef /.notdef /.notdef /.notdef /.notdef /.notdef /.notdef /.notdef
/.notdef /.notdef /.notdef /.notdef /.notdef /.notdef /.notdef /.notdef
/.notdef /.notdef /.notdef /.notdef /.notdef /.notdef /.notdef /.notdef
/.notdef /.notdef /.notdef /.notdef /.notdef /.notdef /.notdef /.notdef
/space /exclamdown /cent /sterling /Euro /yen /Scaron /section
/scaron /copyright /ordfeminine /guillemotleft /logicalnot /hyphen /registered /macron
/degree /plusminus /twosuperior /threesuperior /Zcaron /mu /paragraph /periodcentered
/zcaron /onesuperior /ordmasculine /guillemotright /OE /oe /Ydieresis /questiondown
/Agrave /Aacute /Acircumflex /Atilde /Adieresis /Aring /AE /Ccedilla
/Egrave /Eacute /Ecircumflex /Edieresis /Igrave /Iacute /Icircumflex /Idieresis
/Eth /Ntilde /Ograve /Oacute /Ocircumflex /Otilde /Odieresis /multiply
/Oslash /Ugrave /Uacute /Ucircumflex /Udieresis /Yacute /Thorn /germandbls
/agrave /aacute /acircumflex /atilde /adieresis /aring /ae /ccedilla
/egrave /eacute /ecircumflex /edieresis /igrave /iacute /icircumflex /idieresis
/eth /ntilde /ograve /oacute /ocircumflex /otilde /odieresis /divide
/oslash /ugrave /uacute /ucircumflex /udieresis /yacute /thorn /ydieresis]
/Encoding defineresource pop
% vim:ff=unix:
%%EOF
%%EndDocument
%%EndResource
%%EndProlog
%%BeginSetup
595 842 0 sps
1 nc
T F dt
T c
%%IncludeResource: font Courier
/_F0 /VIM-iso-8859-15 /Courier ref
/F0 10 /_F0 ffs
%%IncludeResource: font Courier-Bold
/_F1 /VIM-iso-8859-15 /Courier-Bold ref
/F1 10 /_F1 ffs
%%IncludeResource: font Courier-Oblique
/_F2 /VIM-iso-8859-15 /Courier-Oblique ref
/F2 10 /_F2 ffs
%%IncludeResource: font Courier-BoldOblique
/_F3 /VIM-iso-8859-15 /Courier-BoldOblique ref
/F3 10 /_F3 ffs
/UO -1 d
/UW 0.5 d
/BO -2.5 d
%%EndSetup
%%Page: 1 1
%%BeginPageSetup
sv
0 g
F0 sf
%%EndPageSetup
F1 sf
(examples/InterL10.log                                                         Page 1)59.5 792.4 ms
F0 sf
0 0 1 r
(### MEET TCONS ARRAY \(des 0\) ###)59.5 772.4 ms
0 g
(__________T1+ abstract__________)59.5 762.4 ms
(top)59.5 752.4 ms
(interval of dim \(0,0\):)59.5 742.4 ms
(__________)59.5 732.4 ms
(array of constraints of size 1)59.5 722.4 ms
( 0: 1 - x0 >= 0)59.5 712.4 ms
0 0 1 r
(### ### ###)59.5 702.4 ms
(### MEET LINCONS ARRAY \(des 0\) ###)59.5 692.4 ms
0 g
(__________T1+ abstract__________)59.5 682.4 ms
(top)59.5 672.4 ms
(interval of dim \(0,0\):)59.5 662.4 ms
(__________)59.5 652.4 ms
(array of constraints of size 2)59.5 642.4 ms
( 0: -x0 + 1 >= 0)59.5 632.4 ms
( 1: -x0 + 1 >= 0)59.5 622.4 ms
0 0 1 r
(### ### ###)59.5 612.4 ms
(### RESULT OF MEET LINCONS ARRAY \(des 0\) ###)59.5 602.4 ms
0 g
(__________T1+ abstract__________)59.5 592.4 ms
(\(0\) := [-oo,1])59.5 582.4 ms
(\(1\) := [-oo,+oo])59.5 562.4 ms
(interval of dim \(0,0\):)59.5 542.4 ms
(__________)59.5 532.4 ms
0 0 1 r
(### ### ###)59.5 522.4 ms
(### RESULT OF MEET TCONS ARRAY \(des 0\) ###)59.5 512.4 ms
0 g
(__________T1+ abstract__________)59.5 502.4 ms
(\(0\) := [-oo,1])59.5 492.4 ms
(\(1\) := [-oo,+oo])59.5 472.4 ms
(interval of dim \(0,0\):)59.5 452.4 ms
(__________)59.5 442.4 ms
0 0 1 r
(### ### ###)59.5 432.4 ms
(### MEET TCONS ARRAY \(des 0\) ###)59.5 422.4 ms
0 g
(__________T1+ abstract__________)59.5 412.4 ms
(top)59.5 402.4 ms
(interval of dim \(0,0\):)59.5 392.4 ms
(__________)59.5 382.4 ms
(array of constraints of size 1)59.5 372.4 ms
( 0: x0 - -\(1\) >= 0)59.5 362.4 ms
0 0 1 r
(### ### ###)59.5 352.4 ms
(### MEET LINCONS ARRAY \(des 0\) ###)59.5 342.4 ms
0 g
(__________T1+ abstract__________)59.5 332.4 ms
(top)59.5 322.4 ms
(interval of dim \(0,0\):)59.5 312.4 ms
(__________)59.5 302.4 ms
(array of constraints of size 2)59.5 292.4 ms
( 0: x0 + 1 >= 0)59.5 282.4 ms
( 1: x0 + 1 >= 0)59.5 272.4 ms
0 0 1 r
(### ### ###)59.5 262.4 ms
(### RESULT OF MEET LINCONS ARRAY \(des 0\) ###)59.5 252.4 ms
0 g
(__________T1+ abstract__________)59.5 242.4 ms
(\(0\) := [-1,+oo])59.5 232.4 ms
(\(1\) := [-oo,+oo])59.5 212.4 ms
(interval of dim \(0,0\):)59.5 192.4 ms
(__________)59.5 182.4 ms
0 0 1 r
(### ### ###)59.5 172.4 ms
(### RESULT OF MEET TCONS ARRAY \(des 0\) ###)59.5 162.4 ms
0 g
(__________T1+ abstract__________)59.5 152.4 ms
(\(0\) := [-1,+oo])59.5 142.4 ms
(\(1\) := [-oo,+oo])59.5 122.4 ms
(interval of dim \(0,0\):)59.5 102.4 ms
(__________)59.5 92.4 ms
0 0 1 r
(### ### ###)59.5 82.4 ms
(### MEET OPERANDS \(destructive 0\)###)59.5 72.4 ms
0 g
(__________T1+ abstract__________)59.5 62.4 ms
(\(0\) := [-1,+oo])59.5 52.4 ms
re sp
%%PageTrailer
%%Page: 2 2
%%BeginPageSetup
sv
0 g
F0 sf
%%EndPageSetup
F1 sf
(examples/InterL10.log                                                         Page 2)59.5 792.4 ms
F0 sf
(\(1\) := [-oo,+oo])59.5 762.4 ms
(interval of dim \(0,0\):)59.5 742.4 ms
(__________)59.5 732.4 ms
(__________T1+ abstract__________)59.5 722.4 ms
(\(0\) := [-oo,1])59.5 712.4 ms
(\(1\) := [-oo,+oo])59.5 692.4 ms
(interval of dim \(0,0\):)59.5 672.4 ms
(__________)59.5 662.4 ms
0 0 1 r
(### ### ###)59.5 652.4 ms
(### RESULT of MEET ###)59.5 642.4 ms
0 g
(__________T1+ abstract__________)59.5 632.4 ms
(\(0\) := 0 + 1.\(x0\))59.5 622.4 ms
(\(1\) := [-oo,+oo])59.5 602.4 ms
(interval of dim \(0,0\):)59.5 582.4 ms
(__________)59.5 572.4 ms
0 0 1 r
(### ### ###)59.5 562.4 ms
(### MEET TCONS ARRAY \(des 0\) ###)59.5 552.4 ms
0 g
(__________T1+ abstract__________)59.5 542.4 ms
(\(0\) := 0 + 1.\(x0\))59.5 532.4 ms
(\(1\) := [-oo,+oo])59.5 512.4 ms
(interval of dim \(0,0\):)59.5 492.4 ms
(__________)59.5 482.4 ms
(array of constraints of size 1)59.5 472.4 ms
( 0: -\(x0 - 0\) > 0)59.5 462.4 ms
0 0 1 r
(### ### ###)59.5 452.4 ms
(### MEET LINCONS ARRAY \(des 0\) ###)59.5 442.4 ms
0 g
(__________T1+ abstract__________)59.5 432.4 ms
(\(0\) := 0 + 1.\(x0\))59.5 422.4 ms
(\(1\) := [-oo,+oo])59.5 402.4 ms
(interval of dim \(0,0\):)59.5 382.4 ms
(__________)59.5 372.4 ms
(array of constraints of size 2)59.5 362.4 ms
( 0: -x0 > 0)59.5 352.4 ms
( 1: -x0 >= 0)59.5 342.4 ms
0 0 1 r
(### ### ###)59.5 332.4 ms
(### RESULT OF MEET LINCONS ARRAY \(des 0\) ###)59.5 322.4 ms
0 g
(__________T1+ abstract__________)59.5 312.4 ms
(\(0\) := 0 + 1.\(x0\))59.5 302.4 ms
(\(1\) := [-oo,+oo])59.5 282.4 ms
(interval of dim \(0,1\):)59.5 262.4 ms
(      x0 in [-1,0])59.5 252.4 ms
(__________)59.5 242.4 ms
0 0 1 r
(### ### ###)59.5 232.4 ms
(### RESULT OF MEET TCONS ARRAY \(des 0\) ###)59.5 222.4 ms
0 g
(__________T1+ abstract__________)59.5 212.4 ms
(\(0\) := 0 + 1.\(x0\))59.5 202.4 ms
(\(1\) := [-oo,+oo])59.5 182.4 ms
(interval of dim \(0,1\):)59.5 162.4 ms
(      x0 in [-1,0])59.5 152.4 ms
(__________)59.5 142.4 ms
0 0 1 r
(### ### ###)59.5 132.4 ms
(### MEET TCONS ARRAY \(des 0\) ###)59.5 122.4 ms
0 g
(__________T1+ abstract__________)59.5 112.4 ms
(\(0\) := 0 + 1.\(x0\))59.5 102.4 ms
(\(1\) := [-oo,+oo])59.5 82.4 ms
(interval of dim \(0,1\):)59.5 62.4 ms
(      x0 in [-1,0])59.5 52.4 ms
re sp
%%PageTrailer
%%Page: 3 3
%%BeginPageSetup
sv
0 g
F0 sf
%%EndPageSetup
F1 sf
(examples/InterL10.log                                                         Page 3)59.5 792.4 ms
F0 sf
(__________)59.5 772.4 ms
(array of constraints of size 1)59.5 762.4 ms
( 0: -\(x0 - -\(1/10\)\) > 0)59.5 752.4 ms
0 0 1 r
(### ### ###)59.5 742.4 ms
(### MEET LINCONS ARRAY \(des 0\) ###)59.5 732.4 ms
0 g
(__________T1+ abstract__________)59.5 722.4 ms
(\(0\) := 0 + 1.\(x0\))59.5 712.4 ms
(\(1\) := [-oo,+oo])59.5 692.4 ms
(interval of dim \(0,1\):)59.5 672.4 ms
(      x0 in [-1,0])59.5 662.4 ms
(__________)59.5 652.4 ms
(array of constraints of size 2)59.5 642.4 ms
( 0: -x0 + [-0.10000000000000000555,-0.099999999999999991673] > 0)59.5 632.4 ms
( 1: -x0 - 0.099999999999999991673 >= 0)59.5 622.4 ms
0 0 1 r
(### ### ###)59.5 612.4 ms
(### RESULT OF MEET LINCONS ARRAY \(des 0\) ###)59.5 602.4 ms
0 g
(__________T1+ abstract__________)59.5 592.4 ms
(\(0\) := 0 + 1.\(x0\))59.5 582.4 ms
(\(1\) := [-oo,+oo])59.5 562.4 ms
(interval of dim \(0,1\):)59.5 542.4 ms
(      x0 in [-1,-0.099999999999999991673])59.5 532.4 ms
(__________)59.5 522.4 ms
0 0 1 r
(### ### ###)59.5 512.4 ms
(### RESULT OF MEET TCONS ARRAY \(des 0\) ###)59.5 502.4 ms
0 g
(__________T1+ abstract__________)59.5 492.4 ms
(\(0\) := 0 + 1.\(x0\))59.5 482.4 ms
(\(1\) := [-oo,+oo])59.5 462.4 ms
(interval of dim \(0,1\):)59.5 442.4 ms
(      x0 in [-1,-0.099999999999999991673])59.5 432.4 ms
(__________)59.5 422.4 ms
0 0 1 r
(### ### ###)59.5 412.4 ms
(### MEET TCONS ARRAY \(des 0\) ###)59.5 402.4 ms
0 g
(__________T1+ abstract__________)59.5 392.4 ms
(\(0\) := 0 + 1.\(x0\))59.5 382.4 ms
(\(1\) := [-oo,+oo])59.5 362.4 ms
(interval of dim \(0,1\):)59.5 342.4 ms
(      x0 in [-1,-0.099999999999999991673])59.5 332.4 ms
(__________)59.5 322.4 ms
(array of constraints of size 1)59.5 312.4 ms
( 0: -\(x0 - -\(1/5\)\) > 0)59.5 302.4 ms
0 0 1 r
(### ### ###)59.5 292.4 ms
(### MEET LINCONS ARRAY \(des 0\) ###)59.5 282.4 ms
0 g
(__________T1+ abstract__________)59.5 272.4 ms
(\(0\) := 0 + 1.\(x0\))59.5 262.4 ms
(\(1\) := [-oo,+oo])59.5 242.4 ms
(interval of dim \(0,1\):)59.5 222.4 ms
(      x0 in [-1,-0.099999999999999991673])59.5 212.4 ms
(__________)59.5 202.4 ms
(array of constraints of size 2)59.5 192.4 ms
( 0: -x0 + [-0.2000000000000000111,-0.19999999999999998335] > 0)59.5 182.4 ms
( 1: -x0 - 0.19999999999999998335 >= 0)59.5 172.4 ms
0 0 1 r
(### ### ###)59.5 162.4 ms
(### RESULT OF MEET LINCONS ARRAY \(des 0\) ###)59.5 152.4 ms
0 g
(__________T1+ abstract__________)59.5 142.4 ms
(\(0\) := 0 + 1.\(x0\))59.5 132.4 ms
(\(1\) := [-oo,+oo])59.5 112.4 ms
(interval of dim \(0,1\):)59.5 92.4 ms
(      x0 in [-1,-0.19999999999999998335])59.5 82.4 ms
(__________)59.5 72.4 ms
0 0 1 r
(### ### ###)59.5 62.4 ms
(### RESULT OF MEET TCONS ARRAY \(des 0\) ###)59.5 52.4 ms
re sp
%%PageTrailer
%%Page: 4 4
%%BeginPageSetup
sv
0 g
F0 sf
%%EndPageSetup
F1 sf
(examples/InterL10.log                                                         Page 4)59.5 792.4 ms
F0 sf
(__________T1+ abstract__________)59.5 772.4 ms
(\(0\) := 0 + 1.\(x0\))59.5 762.4 ms
(\(1\) := [-oo,+oo])59.5 742.4 ms
(interval of dim \(0,1\):)59.5 722.4 ms
(      x0 in [-1,-0.19999999999999998335])59.5 712.4 ms
(__________)59.5 702.4 ms
0 0 1 r
(### ### ###)59.5 692.4 ms
(### MEET TCONS ARRAY \(des 0\) ###)59.5 682.4 ms
0 g
(__________T1+ abstract__________)59.5 672.4 ms
(\(0\) := 0 + 1.\(x0\))59.5 662.4 ms
(\(1\) := [-oo,+oo])59.5 642.4 ms
(interval of dim \(0,1\):)59.5 622.4 ms
(      x0 in [-1,-0.19999999999999998335])59.5 612.4 ms
(__________)59.5 602.4 ms
(array of constraints of size 1)59.5 592.4 ms
( 0: -\(x0 - -\(3/10\)\) > 0)59.5 582.4 ms
0 0 1 r
(### ### ###)59.5 572.4 ms
(### MEET LINCONS ARRAY \(des 0\) ###)59.5 562.4 ms
0 g
(__________T1+ abstract__________)59.5 552.4 ms
(\(0\) := 0 + 1.\(x0\))59.5 542.4 ms
(\(1\) := [-oo,+oo])59.5 522.4 ms
(interval of dim \(0,1\):)59.5 502.4 ms
(      x0 in [-1,-0.19999999999999998335])59.5 492.4 ms
(__________)59.5 482.4 ms
(array of constraints of size 2)59.5 472.4 ms
( 0: -x0 + [-0.30000000000000004441,-0.2999999999999999889] > 0)59.5 462.4 ms
( 1: -x0 - 0.2999999999999999889 >= 0)59.5 452.4 ms
0 0 1 r
(### ### ###)59.5 442.4 ms
(### RESULT OF MEET LINCONS ARRAY \(des 0\) ###)59.5 432.4 ms
0 g
(__________T1+ abstract__________)59.5 422.4 ms
(\(0\) := 0 + 1.\(x0\))59.5 412.4 ms
(\(1\) := [-oo,+oo])59.5 392.4 ms
(interval of dim \(0,1\):)59.5 372.4 ms
(      x0 in [-1,-0.2999999999999999889])59.5 362.4 ms
(__________)59.5 352.4 ms
0 0 1 r
(### ### ###)59.5 342.4 ms
(### RESULT OF MEET TCONS ARRAY \(des 0\) ###)59.5 332.4 ms
0 g
(__________T1+ abstract__________)59.5 322.4 ms
(\(0\) := 0 + 1.\(x0\))59.5 312.4 ms
(\(1\) := [-oo,+oo])59.5 292.4 ms
(interval of dim \(0,1\):)59.5 272.4 ms
(      x0 in [-1,-0.2999999999999999889])59.5 262.4 ms
(__________)59.5 252.4 ms
0 0 1 r
(### ### ###)59.5 242.4 ms
(### MEET TCONS ARRAY \(des 0\) ###)59.5 232.4 ms
0 g
(__________T1+ abstract__________)59.5 222.4 ms
(\(0\) := 0 + 1.\(x0\))59.5 212.4 ms
(\(1\) := [-oo,+oo])59.5 192.4 ms
(interval of dim \(0,1\):)59.5 172.4 ms
(      x0 in [-1,-0.2999999999999999889])59.5 162.4 ms
(__________)59.5 152.4 ms
(array of constraints of size 1)59.5 142.4 ms
( 0: -\(x0 - -\(2/5\)\) > 0)59.5 132.4 ms
0 0 1 r
(### ### ###)59.5 122.4 ms
(### MEET LINCONS ARRAY \(des 0\) ###)59.5 112.4 ms
0 g
(__________T1+ abstract__________)59.5 102.4 ms
(\(0\) := 0 + 1.\(x0\))59.5 92.4 ms
(\(1\) := [-oo,+oo])59.5 72.4 ms
(interval of dim \(0,1\):)59.5 52.4 ms
re sp
%%PageTrailer
%%Page: 5 5
%%BeginPageSetup
sv
0 g
F0 sf
%%EndPageSetup
F1 sf
(examples/InterL10.log                                                         Page 5)59.5 792.4 ms
F0 sf
(      x0 in [-1,-0.2999999999999999889])59.5 772.4 ms
(__________)59.5 762.4 ms
(array of constraints of size 2)59.5 752.4 ms
( 0: -x0 + [-0.4000000000000000222,-0.39999999999999996669] > 0)59.5 742.4 ms
( 1: -x0 - 0.39999999999999996669 >= 0)59.5 732.4 ms
0 0 1 r
(### ### ###)59.5 722.4 ms
(### RESULT OF MEET LINCONS ARRAY \(des 0\) ###)59.5 712.4 ms
0 g
(__________T1+ abstract__________)59.5 702.4 ms
(\(0\) := 0 + 1.\(x0\))59.5 692.4 ms
(\(1\) := [-oo,+oo])59.5 672.4 ms
(interval of dim \(0,1\):)59.5 652.4 ms
(      x0 in [-1,-0.39999999999999996669])59.5 642.4 ms
(__________)59.5 632.4 ms
0 0 1 r
(### ### ###)59.5 622.4 ms
(### RESULT OF MEET TCONS ARRAY \(des 0\) ###)59.5 612.4 ms
0 g
(__________T1+ abstract__________)59.5 602.4 ms
(\(0\) := 0 + 1.\(x0\))59.5 592.4 ms
(\(1\) := [-oo,+oo])59.5 572.4 ms
(interval of dim \(0,1\):)59.5 552.4 ms
(      x0 in [-1,-0.39999999999999996669])59.5 542.4 ms
(__________)59.5 532.4 ms
0 0 1 r
(### ### ###)59.5 522.4 ms
(### MEET TCONS ARRAY \(des 0\) ###)59.5 512.4 ms
0 g
(__________T1+ abstract__________)59.5 502.4 ms
(\(0\) := 0 + 1.\(x0\))59.5 492.4 ms
(\(1\) := [-oo,+oo])59.5 472.4 ms
(interval of dim \(0,1\):)59.5 452.4 ms
(      x0 in [-1,-0.39999999999999996669])59.5 442.4 ms
(__________)59.5 432.4 ms
(array of constraints of size 1)59.5 422.4 ms
( 0: -\(x0 - -\(1/2\)\) > 0)59.5 412.4 ms
0 0 1 r
(### ### ###)59.5 402.4 ms
(### MEET LINCONS ARRAY \(des 0\) ###)59.5 392.4 ms
0 g
(__________T1+ abstract__________)59.5 382.4 ms
(\(0\) := 0 + 1.\(x0\))59.5 372.4 ms
(\(1\) := [-oo,+oo])59.5 352.4 ms
(interval of dim \(0,1\):)59.5 332.4 ms
(      x0 in [-1,-0.39999999999999996669])59.5 322.4 ms
(__________)59.5 312.4 ms
(array of constraints of size 2)59.5 302.4 ms
( 0: -x0 - 0.5 > 0)59.5 292.4 ms
( 1: -x0 - 0.5 >= 0)59.5 282.4 ms
0 0 1 r
(### ### ###)59.5 272.4 ms
(### RESULT OF MEET LINCONS ARRAY \(des 0\) ###)59.5 262.4 ms
0 g
(__________T1+ abstract__________)59.5 252.4 ms
(\(0\) := 0 + 1.\(x0\))59.5 242.4 ms
(\(1\) := [-oo,+oo])59.5 222.4 ms
(interval of dim \(0,1\):)59.5 202.4 ms
(      x0 in [-1,-0.5])59.5 192.4 ms
(__________)59.5 182.4 ms
0 0 1 r
(### ### ###)59.5 172.4 ms
(### RESULT OF MEET TCONS ARRAY \(des 0\) ###)59.5 162.4 ms
0 g
(__________T1+ abstract__________)59.5 152.4 ms
(\(0\) := 0 + 1.\(x0\))59.5 142.4 ms
(\(1\) := [-oo,+oo])59.5 122.4 ms
(interval of dim \(0,1\):)59.5 102.4 ms
(      x0 in [-1,-0.5])59.5 92.4 ms
(__________)59.5 82.4 ms
0 0 1 r
(### ### ###)59.5 72.4 ms
(### MEET TCONS ARRAY \(des 0\) ###)59.5 62.4 ms
0 g
(__________T1+ abstract__________)59.5 52.4 ms
re sp
%%PageTrailer
%%Page: 6 6
%%BeginPageSetup
sv
0 g
F0 sf
%%EndPageSetup
F1 sf
(examples/InterL10.log                                                         Page 6)59.5 792.4 ms
F0 sf
(\(0\) := 0 + 1.\(x0\))59.5 772.4 ms
(\(1\) := [-oo,+oo])59.5 752.4 ms
(interval of dim \(0,1\):)59.5 732.4 ms
(      x0 in [-1,-0.5])59.5 722.4 ms
(__________)59.5 712.4 ms
(array of constraints of size 1)59.5 702.4 ms
( 0: -\(x0 - -\(3/5\)\) > 0)59.5 692.4 ms
0 0 1 r
(### ### ###)59.5 682.4 ms
(### MEET LINCONS ARRAY \(des 0\) ###)59.5 672.4 ms
0 g
(__________T1+ abstract__________)59.5 662.4 ms
(\(0\) := 0 + 1.\(x0\))59.5 652.4 ms
(\(1\) := [-oo,+oo])59.5 632.4 ms
(interval of dim \(0,1\):)59.5 612.4 ms
(      x0 in [-1,-0.5])59.5 602.4 ms
(__________)59.5 592.4 ms
(array of constraints of size 2)59.5 582.4 ms
( 0: -x0 + [-0.60000000000000008882,-0.5999999999999999778] > 0)59.5 572.4 ms
( 1: -x0 - 0.5999999999999999778 >= 0)59.5 562.4 ms
0 0 1 r
(### ### ###)59.5 552.4 ms
(### RESULT OF MEET LINCONS ARRAY \(des 0\) ###)59.5 542.4 ms
0 g
(__________T1+ abstract__________)59.5 532.4 ms
(\(0\) := 0 + 1.\(x0\))59.5 522.4 ms
(\(1\) := [-oo,+oo])59.5 502.4 ms
(interval of dim \(0,1\):)59.5 482.4 ms
(      x0 in [-1,-0.5999999999999999778])59.5 472.4 ms
(__________)59.5 462.4 ms
0 0 1 r
(### ### ###)59.5 452.4 ms
(### RESULT OF MEET TCONS ARRAY \(des 0\) ###)59.5 442.4 ms
0 g
(__________T1+ abstract__________)59.5 432.4 ms
(\(0\) := 0 + 1.\(x0\))59.5 422.4 ms
(\(1\) := [-oo,+oo])59.5 402.4 ms
(interval of dim \(0,1\):)59.5 382.4 ms
(      x0 in [-1,-0.5999999999999999778])59.5 372.4 ms
(__________)59.5 362.4 ms
0 0 1 r
(### ### ###)59.5 352.4 ms
(### MEET TCONS ARRAY \(des 0\) ###)59.5 342.4 ms
0 g
(__________T1+ abstract__________)59.5 332.4 ms
(\(0\) := 0 + 1.\(x0\))59.5 322.4 ms
(\(1\) := [-oo,+oo])59.5 302.4 ms
(interval of dim \(0,1\):)59.5 282.4 ms
(      x0 in [-1,-0.5999999999999999778])59.5 272.4 ms
(__________)59.5 262.4 ms
(array of constraints of size 1)59.5 252.4 ms
( 0: -\(x0 - -\(7/10\)\) > 0)59.5 242.4 ms
0 0 1 r
(### ### ###)59.5 232.4 ms
(### MEET LINCONS ARRAY \(des 0\) ###)59.5 222.4 ms
0 g
(__________T1+ abstract__________)59.5 212.4 ms
(\(0\) := 0 + 1.\(x0\))59.5 202.4 ms
(\(1\) := [-oo,+oo])59.5 182.4 ms
(interval of dim \(0,1\):)59.5 162.4 ms
(      x0 in [-1,-0.5999999999999999778])59.5 152.4 ms
(__________)59.5 142.4 ms
(array of constraints of size 2)59.5 132.4 ms
( 0: -x0 + [-0.70000000000000006661,-0.69999999999999995559] > 0)59.5 122.4 ms
( 1: -x0 - 0.69999999999999995559 >= 0)59.5 112.4 ms
0 0 1 r
(### ### ###)59.5 102.4 ms
(### RESULT OF MEET LINCONS ARRAY \(des 0\) ###)59.5 92.4 ms
0 g
(__________T1+ abstract__________)59.5 82.4 ms
(\(0\) := 0 + 1.\(x0\))59.5 72.4 ms
(\(1\) := [-oo,+oo])59.5 52.4 ms
re sp
%%PageTrailer
%%Page: 7 7
%%BeginPageSetup
sv
0 g
F0 sf
%%EndPageSetup
F1 sf
(examples/InterL10.log                                                         Page 7)59.5 792.4 ms
F0 sf
(interval of dim \(0,1\):)59.5 762.4 ms
(      x0 in [-1,-0.69999999999999995559])59.5 752.4 ms
(__________)59.5 742.4 ms
0 0 1 r
(### ### ###)59.5 732.4 ms
(### RESULT OF MEET TCONS ARRAY \(des 0\) ###)59.5 722.4 ms
0 g
(__________T1+ abstract__________)59.5 712.4 ms
(\(0\) := 0 + 1.\(x0\))59.5 702.4 ms
(\(1\) := [-oo,+oo])59.5 682.4 ms
(interval of dim \(0,1\):)59.5 662.4 ms
(      x0 in [-1,-0.69999999999999995559])59.5 652.4 ms
(__________)59.5 642.4 ms
0 0 1 r
(### ### ###)59.5 632.4 ms
(### MEET TCONS ARRAY \(des 0\) ###)59.5 622.4 ms
0 g
(__________T1+ abstract__________)59.5 612.4 ms
(\(0\) := 0 + 1.\(x0\))59.5 602.4 ms
(\(1\) := [-oo,+oo])59.5 582.4 ms
(interval of dim \(0,1\):)59.5 562.4 ms
(      x0 in [-1,-0.69999999999999995559])59.5 552.4 ms
(__________)59.5 542.4 ms
(array of constraints of size 1)59.5 532.4 ms
( 0: -\(x0 - -\(4/5\)\) > 0)59.5 522.4 ms
0 0 1 r
(### ### ###)59.5 512.4 ms
(### MEET LINCONS ARRAY \(des 0\) ###)59.5 502.4 ms
0 g
(__________T1+ abstract__________)59.5 492.4 ms
(\(0\) := 0 + 1.\(x0\))59.5 482.4 ms
(\(1\) := [-oo,+oo])59.5 462.4 ms
(interval of dim \(0,1\):)59.5 442.4 ms
(      x0 in [-1,-0.69999999999999995559])59.5 432.4 ms
(__________)59.5 422.4 ms
(array of constraints of size 2)59.5 412.4 ms
( 0: -x0 + [-0.80000000000000004441,-0.79999999999999993339] > 0)59.5 402.4 ms
( 1: -x0 - 0.79999999999999993339 >= 0)59.5 392.4 ms
0 0 1 r
(### ### ###)59.5 382.4 ms
(### RESULT OF MEET LINCONS ARRAY \(des 0\) ###)59.5 372.4 ms
0 g
(__________T1+ abstract__________)59.5 362.4 ms
(\(0\) := 0 + 1.\(x0\))59.5 352.4 ms
(\(1\) := [-oo,+oo])59.5 332.4 ms
(interval of dim \(0,1\):)59.5 312.4 ms
(      x0 in [-1,-0.79999999999999993339])59.5 302.4 ms
(__________)59.5 292.4 ms
0 0 1 r
(### ### ###)59.5 282.4 ms
(### RESULT OF MEET TCONS ARRAY \(des 0\) ###)59.5 272.4 ms
0 g
(__________T1+ abstract__________)59.5 262.4 ms
(\(0\) := 0 + 1.\(x0\))59.5 252.4 ms
(\(1\) := [-oo,+oo])59.5 232.4 ms
(interval of dim \(0,1\):)59.5 212.4 ms
(      x0 in [-1,-0.79999999999999993339])59.5 202.4 ms
(__________)59.5 192.4 ms
0 0 1 r
(### ### ###)59.5 182.4 ms
(### MEET TCONS ARRAY \(des 0\) ###)59.5 172.4 ms
0 g
(__________T1+ abstract__________)59.5 162.4 ms
(\(0\) := 0 + 1.\(x0\))59.5 152.4 ms
(\(1\) := [-oo,+oo])59.5 132.4 ms
(interval of dim \(0,1\):)59.5 112.4 ms
(      x0 in [-1,-0.79999999999999993339])59.5 102.4 ms
(__________)59.5 92.4 ms
(array of constraints of size 1)59.5 82.4 ms
( 0: -\(x0 - -\(9/10\)\) > 0)59.5 72.4 ms
0 0 1 r
(### ### ###)59.5 62.4 ms
(### MEET LINCONS ARRAY \(des 0\) ###)59.5 52.4 ms
re sp
%%PageTrailer
%%Page: 8 8
%%BeginPageSetup
sv
0 g
F0 sf
%%EndPageSetup
F1 sf
(examples/InterL10.log                                                         Page 8)59.5 792.4 ms
F0 sf
(__________T1+ abstract__________)59.5 772.4 ms
(\(0\) := 0 + 1.\(x0\))59.5 762.4 ms
(\(1\) := [-oo,+oo])59.5 742.4 ms
(interval of dim \(0,1\):)59.5 722.4 ms
(      x0 in [-1,-0.79999999999999993339])59.5 712.4 ms
(__________)59.5 702.4 ms
(array of constraints of size 2)59.5 692.4 ms
( 0: -x0 + [-0.9000000000000000222,-0.89999999999999991118] > 0)59.5 682.4 ms
( 1: -x0 - 0.89999999999999991118 >= 0)59.5 672.4 ms
0 0 1 r
(### ### ###)59.5 662.4 ms
(### RESULT OF MEET LINCONS ARRAY \(des 0\) ###)59.5 652.4 ms
0 g
(__________T1+ abstract__________)59.5 642.4 ms
(\(0\) := 0 + 1.\(x0\))59.5 632.4 ms
(\(1\) := [-oo,+oo])59.5 612.4 ms
(interval of dim \(0,1\):)59.5 592.4 ms
(      x0 in [-1,-0.89999999999999991118])59.5 582.4 ms
(__________)59.5 572.4 ms
0 0 1 r
(### ### ###)59.5 562.4 ms
(### RESULT OF MEET TCONS ARRAY \(des 0\) ###)59.5 552.4 ms
0 g
(__________T1+ abstract__________)59.5 542.4 ms
(\(0\) := 0 + 1.\(x0\))59.5 532.4 ms
(\(1\) := [-oo,+oo])59.5 512.4 ms
(interval of dim \(0,1\):)59.5 492.4 ms
(      x0 in [-1,-0.89999999999999991118])59.5 482.4 ms
(__________)59.5 472.4 ms
0 0 1 r
(### ### ###)59.5 462.4 ms
(### MEET TCONS ARRAY \(des 0\) ###)59.5 452.4 ms
0 g
(__________T1+ abstract__________)59.5 442.4 ms
(\(0\) := 0 + 1.\(x0\))59.5 432.4 ms
(\(1\) := [-oo,+oo])59.5 412.4 ms
(interval of dim \(0,1\):)59.5 392.4 ms
(      x0 in [-1,-0.79999999999999993339])59.5 382.4 ms
(__________)59.5 372.4 ms
(array of constraints of size 1)59.5 362.4 ms
( 0: x0 - -\(9/10\) >= 0)59.5 352.4 ms
0 0 1 r
(### ### ###)59.5 342.4 ms
(### MEET LINCONS ARRAY \(des 0\) ###)59.5 332.4 ms
0 g
(__________T1+ abstract__________)59.5 322.4 ms
(\(0\) := 0 + 1.\(x0\))59.5 312.4 ms
(\(1\) := [-oo,+oo])59.5 292.4 ms
(interval of dim \(0,1\):)59.5 272.4 ms
(      x0 in [-1,-0.79999999999999993339])59.5 262.4 ms
(__________)59.5 252.4 ms
(array of constraints of size 2)59.5 242.4 ms
( 0: x0 + [0.89999999999999991118,0.9000000000000000222] >= 0)59.5 232.4 ms
( 1: x0 + 0.9000000000000000222 >= 0)59.5 222.4 ms
0 0 1 r
(### ### ###)59.5 212.4 ms
(### RESULT OF MEET LINCONS ARRAY \(des 0\) ###)59.5 202.4 ms
0 g
(__________T1+ abstract__________)59.5 192.4 ms
(\(0\) := 0 + 1.\(x0\))59.5 182.4 ms
(\(1\) := [-oo,+oo])59.5 162.4 ms
(interval of dim \(0,1\):)59.5 142.4 ms
(      x0 in [-0.9000000000000000222,-0.79999999999999993339])59.5 132.4 ms
(__________)59.5 122.4 ms
0 0 1 r
(### ### ###)59.5 112.4 ms
(### RESULT OF MEET TCONS ARRAY \(des 0\) ###)59.5 102.4 ms
0 g
(__________T1+ abstract__________)59.5 92.4 ms
(\(0\) := 0 + 1.\(x0\))59.5 82.4 ms
(\(1\) := [-oo,+oo])59.5 62.4 ms
re sp
%%PageTrailer
%%Page: 9 9
%%BeginPageSetup
sv
0 g
F0 sf
%%EndPageSetup
F1 sf
(examples/InterL10.log                                                         Page 9)59.5 792.4 ms
F0 sf
(interval of dim \(0,1\):)59.5 772.4 ms
(      x0 in [-0.9000000000000000222,-0.79999999999999993339])59.5 762.4 ms
(__________)59.5 752.4 ms
0 0 1 r
(### ### ###)59.5 742.4 ms
(### JOIN OPERANDS \(des 0\) ###)59.5 732.4 ms
0 g
(__________T1+ abstract__________)59.5 722.4 ms
(\(0\) := 0 + 1.\(x0\))59.5 712.4 ms
(\(1\) := 0 + 20.\(x0\) + 3.5527136788005009294e-15.\(x1\))59.5 692.4 ms
(interval of dim \(0,1\):)59.5 672.4 ms
(      x0 in [-1,-0.89999999999999991118])59.5 662.4 ms
(__________)59.5 652.4 ms
(__________T1+ abstract__________)59.5 642.4 ms
(\(0\) := 0 + 1.\(x0\))59.5 632.4 ms
(\(1\) := 0 + 19.\(x0\) + 3.5527136788005009294e-15.\(x2\))59.5 612.4 ms
(interval of dim \(0,1\):)59.5 592.4 ms
(      x0 in [-0.9000000000000000222,-0.79999999999999993339])59.5 582.4 ms
(__________)59.5 572.4 ms
0 0 1 r
(### ### ###)59.5 562.4 ms
(### RESULT of JOIN \(des 0\) ###)59.5 552.4 ms
0 g
(__________T1+ abstract__________)59.5 542.4 ms
(\(0\) := -0.89999999999999991118 + [u]0.10000000000000008882.\(x3\))59.5 532.4 ms
(\(1\) := -17.599999999999997868 + [u]2.4000000000000056843.\(x4\))59.5 512.4 ms
(interval of dim \(0,1\):)59.5 492.4 ms
(      x0 in [-1,-0.79999999999999993339])59.5 482.4 ms
(__________)59.5 472.4 ms
0 0 1 r
(### ### ###)59.5 462.4 ms
(### MEET TCONS ARRAY \(des 0\) ###)59.5 452.4 ms
0 g
(__________T1+ abstract__________)59.5 442.4 ms
(\(0\) := 0 + 1.\(x0\))59.5 432.4 ms
(\(1\) := [-oo,+oo])59.5 412.4 ms
(interval of dim \(0,1\):)59.5 392.4 ms
(      x0 in [-1,-0.69999999999999995559])59.5 382.4 ms
(__________)59.5 372.4 ms
(array of constraints of size 1)59.5 362.4 ms
( 0: x0 - -\(4/5\) >= 0)59.5 352.4 ms
0 0 1 r
(### ### ###)59.5 342.4 ms
(### MEET LINCONS ARRAY \(des 0\) ###)59.5 332.4 ms
0 g
(__________T1+ abstract__________)59.5 322.4 ms
(\(0\) := 0 + 1.\(x0\))59.5 312.4 ms
(\(1\) := [-oo,+oo])59.5 292.4 ms
(interval of dim \(0,1\):)59.5 272.4 ms
(      x0 in [-1,-0.69999999999999995559])59.5 262.4 ms
(__________)59.5 252.4 ms
(array of constraints of size 2)59.5 242.4 ms
( 0: x0 + [0.79999999999999993339,0.80000000000000004441] >= 0)59.5 232.4 ms
( 1: x0 + 0.80000000000000004441 >= 0)59.5 222.4 ms
0 0 1 r
(### ### ###)59.5 212.4 ms
(### RESULT OF MEET LINCONS ARRAY \(des 0\) ###)59.5 202.4 ms
0 g
(__________T1+ abstract__________)59.5 192.4 ms
(\(0\) := 0 + 1.\(x0\))59.5 182.4 ms
(\(1\) := [-oo,+oo])59.5 162.4 ms
(interval of dim \(0,1\):)59.5 142.4 ms
(      x0 in [-0.80000000000000004441,-0.69999999999999995559])59.5 132.4 ms
(__________)59.5 122.4 ms
0 0 1 r
(### ### ###)59.5 112.4 ms
(### RESULT OF MEET TCONS ARRAY \(des 0\) ###)59.5 102.4 ms
0 g
(__________T1+ abstract__________)59.5 92.4 ms
(\(0\) := 0 + 1.\(x0\))59.5 82.4 ms
(\(1\) := [-oo,+oo])59.5 62.4 ms
re sp
%%PageTrailer
%%Page: 10 10
%%BeginPageSetup
sv
0 g
F0 sf
%%EndPageSetup
F1 sf
(examples/InterL10.log                                                        Page 10)59.5 792.4 ms
F0 sf
(interval of dim \(0,1\):)59.5 772.4 ms
(      x0 in [-0.80000000000000004441,-0.69999999999999995559])59.5 762.4 ms
(__________)59.5 752.4 ms
0 0 1 r
(### ### ###)59.5 742.4 ms
(### JOIN OPERANDS \(des 0\) ###)59.5 732.4 ms
0 g
(__________T1+ abstract__________)59.5 722.4 ms
(\(0\) := -0.89999999999999991118 + [u]0.10000000000000008882.\(x3\))59.5 712.4 ms
(\(1\) := -17.599999999999997868 + [u]2.4000000000000056843.\(x4\))59.5 692.4 ms
(interval of dim \(0,1\):)59.5 672.4 ms
(      x0 in [-1,-0.79999999999999993339])59.5 662.4 ms
(__________)59.5 652.4 ms
(__________T1+ abstract__________)59.5 642.4 ms
(\(0\) := 0 + 1.\(x0\))59.5 632.4 ms
(\(1\) := 0 + 18.\(x0\))59.5 612.4 ms
(interval of dim \(0,1\):)59.5 592.4 ms
(      x0 in [-0.80000000000000004441,-0.69999999999999995559])59.5 582.4 ms
(__________)59.5 572.4 ms
0 0 1 r
(### ### ###)59.5 562.4 ms
(### RESULT of JOIN \(des 0\) ###)59.5 552.4 ms
0 g
(__________T1+ abstract__________)59.5 542.4 ms
(\(0\) := -0.8499999999999999778 + [u]0.1500000000000000222.\(x5\))59.5 532.4 ms
(\(1\) := -16.300000000000000711 + [u]3.7000000000000028422.\(x6\))59.5 512.4 ms
(interval of dim \(0,0\):)59.5 492.4 ms
(__________)59.5 482.4 ms
0 0 1 r
(### ### ###)59.5 472.4 ms
(### MEET TCONS ARRAY \(des 0\) ###)59.5 462.4 ms
0 g
(__________T1+ abstract__________)59.5 452.4 ms
(\(0\) := 0 + 1.\(x0\))59.5 442.4 ms
(\(1\) := [-oo,+oo])59.5 422.4 ms
(interval of dim \(0,1\):)59.5 402.4 ms
(      x0 in [-1,-0.5999999999999999778])59.5 392.4 ms
(__________)59.5 382.4 ms
(array of constraints of size 1)59.5 372.4 ms
( 0: x0 - -\(7/10\) >= 0)59.5 362.4 ms
0 0 1 r
(### ### ###)59.5 352.4 ms
(### MEET LINCONS ARRAY \(des 0\) ###)59.5 342.4 ms
0 g
(__________T1+ abstract__________)59.5 332.4 ms
(\(0\) := 0 + 1.\(x0\))59.5 322.4 ms
(\(1\) := [-oo,+oo])59.5 302.4 ms
(interval of dim \(0,1\):)59.5 282.4 ms
(      x0 in [-1,-0.5999999999999999778])59.5 272.4 ms
(__________)59.5 262.4 ms
(array of constraints of size 2)59.5 252.4 ms
( 0: x0 + [0.69999999999999995559,0.70000000000000006661] >= 0)59.5 242.4 ms
( 1: x0 + 0.70000000000000006661 >= 0)59.5 232.4 ms
0 0 1 r
(### ### ###)59.5 222.4 ms
(### RESULT OF MEET LINCONS ARRAY \(des 0\) ###)59.5 212.4 ms
0 g
(__________T1+ abstract__________)59.5 202.4 ms
(\(0\) := 0 + 1.\(x0\))59.5 192.4 ms
(\(1\) := [-oo,+oo])59.5 172.4 ms
(interval of dim \(0,1\):)59.5 152.4 ms
(      x0 in [-0.70000000000000006661,-0.5999999999999999778])59.5 142.4 ms
(__________)59.5 132.4 ms
0 0 1 r
(### ### ###)59.5 122.4 ms
(### RESULT OF MEET TCONS ARRAY \(des 0\) ###)59.5 112.4 ms
0 g
(__________T1+ abstract__________)59.5 102.4 ms
(\(0\) := 0 + 1.\(x0\))59.5 92.4 ms
(\(1\) := [-oo,+oo])59.5 72.4 ms
(interval of dim \(0,1\):)59.5 52.4 ms
re sp
%%PageTrailer
%%Page: 11 11
%%BeginPageSetup
sv
0 g
F0 sf
%%EndPageSetup
F1 sf
(examples/InterL10.log                                                        Page 11)59.5 792.4 ms
F0 sf
(      x0 in [-0.70000000000000006661,-0.5999999999999999778])59.5 772.4 ms
(__________)59.5 762.4 ms
0 0 1 r
(### ### ###)59.5 752.4 ms
(### JOIN OPERANDS \(des 0\) ###)59.5 742.4 ms
0 g
(__________T1+ abstract__________)59.5 732.4 ms
(\(0\) := -0.8499999999999999778 + [u]0.1500000000000000222.\(x5\))59.5 722.4 ms
(\(1\) := -16.300000000000000711 + [u]3.7000000000000028422.\(x6\))59.5 702.4 ms
(interval of dim \(0,0\):)59.5 682.4 ms
(__________)59.5 672.4 ms
(__________T1+ abstract__________)59.5 662.4 ms
(\(0\) := 0 + 1.\(x0\))59.5 652.4 ms
(\(1\) := 0 + 17.\(x0\) + 1.7763568394002504647e-15.\(x7\))59.5 632.4 ms
(interval of dim \(0,1\):)59.5 612.4 ms
(      x0 in [-0.70000000000000006661,-0.5999999999999999778])59.5 602.4 ms
(__________)59.5 592.4 ms
0 0 1 r
(### ### ###)59.5 582.4 ms
(### RESULT of JOIN \(des 0\) ###)59.5 572.4 ms
0 g
(__________T1+ abstract__________)59.5 562.4 ms
(\(0\) := -0.79999999999999993339 + [u]0.20000000000000006661.\(x8\))59.5 552.4 ms
(\(1\) := -15.099999999999999645 + [u]4.900000000000003908.\(x9\))59.5 532.4 ms
(interval of dim \(0,0\):)59.5 512.4 ms
(__________)59.5 502.4 ms
0 0 1 r
(### ### ###)59.5 492.4 ms
(### MEET TCONS ARRAY \(des 0\) ###)59.5 482.4 ms
0 g
(__________T1+ abstract__________)59.5 472.4 ms
(\(0\) := 0 + 1.\(x0\))59.5 462.4 ms
(\(1\) := [-oo,+oo])59.5 442.4 ms
(interval of dim \(0,1\):)59.5 422.4 ms
(      x0 in [-1,-0.5])59.5 412.4 ms
(__________)59.5 402.4 ms
(array of constraints of size 1)59.5 392.4 ms
( 0: x0 - -\(3/5\) >= 0)59.5 382.4 ms
0 0 1 r
(### ### ###)59.5 372.4 ms
(### MEET LINCONS ARRAY \(des 0\) ###)59.5 362.4 ms
0 g
(__________T1+ abstract__________)59.5 352.4 ms
(\(0\) := 0 + 1.\(x0\))59.5 342.4 ms
(\(1\) := [-oo,+oo])59.5 322.4 ms
(interval of dim \(0,1\):)59.5 302.4 ms
(      x0 in [-1,-0.5])59.5 292.4 ms
(__________)59.5 282.4 ms
(array of constraints of size 2)59.5 272.4 ms
( 0: x0 + [0.5999999999999999778,0.60000000000000008882] >= 0)59.5 262.4 ms
( 1: x0 + 0.60000000000000008882 >= 0)59.5 252.4 ms
0 0 1 r
(### ### ###)59.5 242.4 ms
(### RESULT OF MEET LINCONS ARRAY \(des 0\) ###)59.5 232.4 ms
0 g
(__________T1+ abstract__________)59.5 222.4 ms
(\(0\) := 0 + 1.\(x0\))59.5 212.4 ms
(\(1\) := [-oo,+oo])59.5 192.4 ms
(interval of dim \(0,1\):)59.5 172.4 ms
(      x0 in [-0.60000000000000008882,-0.5])59.5 162.4 ms
(__________)59.5 152.4 ms
0 0 1 r
(### ### ###)59.5 142.4 ms
(### RESULT OF MEET TCONS ARRAY \(des 0\) ###)59.5 132.4 ms
0 g
(__________T1+ abstract__________)59.5 122.4 ms
(\(0\) := 0 + 1.\(x0\))59.5 112.4 ms
(\(1\) := [-oo,+oo])59.5 92.4 ms
(interval of dim \(0,1\):)59.5 72.4 ms
(      x0 in [-0.60000000000000008882,-0.5])59.5 62.4 ms
(__________)59.5 52.4 ms
re sp
%%PageTrailer
%%Page: 12 12
%%BeginPageSetup
sv
0 g
F0 sf
%%EndPageSetup
F1 sf
(examples/InterL10.log                                                        Page 12)59.5 792.4 ms
F0 sf
0 0 1 r
(### ### ###)59.5 772.4 ms
(### JOIN OPERANDS \(des 0\) ###)59.5 762.4 ms
0 g
(__________T1+ abstract__________)59.5 752.4 ms
(\(0\) := -0.79999999999999993339 + [u]0.20000000000000006661.\(x8\))59.5 742.4 ms
(\(1\) := -15.099999999999999645 + [u]4.900000000000003908.\(x9\))59.5 722.4 ms
(interval of dim \(0,0\):)59.5 702.4 ms
(__________)59.5 692.4 ms
(__________T1+ abstract__________)59.5 682.4 ms
(\(0\) := 0 + 1.\(x0\))59.5 672.4 ms
(\(1\) := 0 + 16.\(x0\))59.5 652.4 ms
(interval of dim \(0,1\):)59.5 632.4 ms
(      x0 in [-0.60000000000000008882,-0.5])59.5 622.4 ms
(__________)59.5 612.4 ms
0 0 1 r
(### ### ###)59.5 602.4 ms
(### RESULT of JOIN \(des 0\) ###)59.5 592.4 ms
0 g
(__________T1+ abstract__________)59.5 582.4 ms
(\(0\) := -0.75 + [u]0.25.\(x10\))59.5 572.4 ms
(\(1\) := -14.000000000000001776 + [u]6.0000000000000017764.\(x11\))59.5 552.4 ms
(interval of dim \(0,0\):)59.5 532.4 ms
(__________)59.5 522.4 ms
0 0 1 r
(### ### ###)59.5 512.4 ms
(### MEET TCONS ARRAY \(des 0\) ###)59.5 502.4 ms
0 g
(__________T1+ abstract__________)59.5 492.4 ms
(\(0\) := 0 + 1.\(x0\))59.5 482.4 ms
(\(1\) := [-oo,+oo])59.5 462.4 ms
(interval of dim \(0,1\):)59.5 442.4 ms
(      x0 in [-1,-0.39999999999999996669])59.5 432.4 ms
(__________)59.5 422.4 ms
(array of constraints of size 1)59.5 412.4 ms
( 0: x0 - -\(1/2\) >= 0)59.5 402.4 ms
0 0 1 r
(### ### ###)59.5 392.4 ms
(### MEET LINCONS ARRAY \(des 0\) ###)59.5 382.4 ms
0 g
(__________T1+ abstract__________)59.5 372.4 ms
(\(0\) := 0 + 1.\(x0\))59.5 362.4 ms
(\(1\) := [-oo,+oo])59.5 342.4 ms
(interval of dim \(0,1\):)59.5 322.4 ms
(      x0 in [-1,-0.39999999999999996669])59.5 312.4 ms
(__________)59.5 302.4 ms
(array of constraints of size 2)59.5 292.4 ms
( 0: x0 + 0.5 >= 0)59.5 282.4 ms
( 1: x0 + 0.5 >= 0)59.5 272.4 ms
0 0 1 r
(### ### ###)59.5 262.4 ms
(### RESULT OF MEET LINCONS ARRAY \(des 0\) ###)59.5 252.4 ms
0 g
(__________T1+ abstract__________)59.5 242.4 ms
(\(0\) := 0 + 1.\(x0\))59.5 232.4 ms
(\(1\) := [-oo,+oo])59.5 212.4 ms
(interval of dim \(0,1\):)59.5 192.4 ms
(      x0 in [-0.5,-0.39999999999999996669])59.5 182.4 ms
(__________)59.5 172.4 ms
0 0 1 r
(### ### ###)59.5 162.4 ms
(### RESULT OF MEET TCONS ARRAY \(des 0\) ###)59.5 152.4 ms
0 g
(__________T1+ abstract__________)59.5 142.4 ms
(\(0\) := 0 + 1.\(x0\))59.5 132.4 ms
(\(1\) := [-oo,+oo])59.5 112.4 ms
(interval of dim \(0,1\):)59.5 92.4 ms
(      x0 in [-0.5,-0.39999999999999996669])59.5 82.4 ms
(__________)59.5 72.4 ms
0 0 1 r
(### ### ###)59.5 62.4 ms
(### JOIN OPERANDS \(des 0\) ###)59.5 52.4 ms
re sp
%%PageTrailer
%%Page: 13 13
%%BeginPageSetup
sv
0 g
F0 sf
%%EndPageSetup
F1 sf
(examples/InterL10.log                                                        Page 13)59.5 792.4 ms
F0 sf
(__________T1+ abstract__________)59.5 772.4 ms
(\(0\) := -0.75 + [u]0.25.\(x10\))59.5 762.4 ms
(\(1\) := -14.000000000000001776 + [u]6.0000000000000017764.\(x11\))59.5 742.4 ms
(interval of dim \(0,0\):)59.5 722.4 ms
(__________)59.5 712.4 ms
(__________T1+ abstract__________)59.5 702.4 ms
(\(0\) := 0 + 1.\(x0\))59.5 692.4 ms
(\(1\) := 0 + 15.\(x0\) + 8.8817841970012523234e-16.\(x12\))59.5 672.4 ms
(interval of dim \(0,1\):)59.5 652.4 ms
(      x0 in [-0.5,-0.39999999999999996669])59.5 642.4 ms
(__________)59.5 632.4 ms
0 0 1 r
(### ### ###)59.5 622.4 ms
(### RESULT of JOIN \(des 0\) ###)59.5 612.4 ms
0 g
(__________T1+ abstract__________)59.5 602.4 ms
(\(0\) := -0.69999999999999995559 + [u]0.30000000000000004441.\(x13\))59.5 592.4 ms
(\(1\) := -13 + [u]7.0000000000000035527.\(x14\))59.5 572.4 ms
(interval of dim \(0,0\):)59.5 552.4 ms
(__________)59.5 542.4 ms
0 0 1 r
(### ### ###)59.5 532.4 ms
(### MEET TCONS ARRAY \(des 0\) ###)59.5 522.4 ms
0 g
(__________T1+ abstract__________)59.5 512.4 ms
(\(0\) := 0 + 1.\(x0\))59.5 502.4 ms
(\(1\) := [-oo,+oo])59.5 482.4 ms
(interval of dim \(0,1\):)59.5 462.4 ms
(      x0 in [-1,-0.2999999999999999889])59.5 452.4 ms
(__________)59.5 442.4 ms
(array of constraints of size 1)59.5 432.4 ms
( 0: x0 - -\(2/5\) >= 0)59.5 422.4 ms
0 0 1 r
(### ### ###)59.5 412.4 ms
(### MEET LINCONS ARRAY \(des 0\) ###)59.5 402.4 ms
0 g
(__________T1+ abstract__________)59.5 392.4 ms
(\(0\) := 0 + 1.\(x0\))59.5 382.4 ms
(\(1\) := [-oo,+oo])59.5 362.4 ms
(interval of dim \(0,1\):)59.5 342.4 ms
(      x0 in [-1,-0.2999999999999999889])59.5 332.4 ms
(__________)59.5 322.4 ms
(array of constraints of size 2)59.5 312.4 ms
( 0: x0 + [0.39999999999999996669,0.4000000000000000222] >= 0)59.5 302.4 ms
( 1: x0 + 0.4000000000000000222 >= 0)59.5 292.4 ms
0 0 1 r
(### ### ###)59.5 282.4 ms
(### RESULT OF MEET LINCONS ARRAY \(des 0\) ###)59.5 272.4 ms
0 g
(__________T1+ abstract__________)59.5 262.4 ms
(\(0\) := 0 + 1.\(x0\))59.5 252.4 ms
(\(1\) := [-oo,+oo])59.5 232.4 ms
(interval of dim \(0,1\):)59.5 212.4 ms
(      x0 in [-0.4000000000000000222,-0.2999999999999999889])59.5 202.4 ms
(__________)59.5 192.4 ms
0 0 1 r
(### ### ###)59.5 182.4 ms
(### RESULT OF MEET TCONS ARRAY \(des 0\) ###)59.5 172.4 ms
0 g
(__________T1+ abstract__________)59.5 162.4 ms
(\(0\) := 0 + 1.\(x0\))59.5 152.4 ms
(\(1\) := [-oo,+oo])59.5 132.4 ms
(interval of dim \(0,1\):)59.5 112.4 ms
(      x0 in [-0.4000000000000000222,-0.2999999999999999889])59.5 102.4 ms
(__________)59.5 92.4 ms
0 0 1 r
(### ### ###)59.5 82.4 ms
(### JOIN OPERANDS \(des 0\) ###)59.5 72.4 ms
0 g
(__________T1+ abstract__________)59.5 62.4 ms
(\(0\) := -0.69999999999999995559 + [u]0.30000000000000004441.\(x13\))59.5 52.4 ms
re sp
%%PageTrailer
%%Page: 14 14
%%BeginPageSetup
sv
0 g
F0 sf
%%EndPageSetup
F1 sf
(examples/InterL10.log                                                        Page 14)59.5 792.4 ms
F0 sf
(\(1\) := -13 + [u]7.0000000000000035527.\(x14\))59.5 762.4 ms
(interval of dim \(0,0\):)59.5 742.4 ms
(__________)59.5 732.4 ms
(__________T1+ abstract__________)59.5 722.4 ms
(\(0\) := 0 + 1.\(x0\))59.5 712.4 ms
(\(1\) := 0 + 14.\(x0\) + 8.8817841970012523234e-16.\(x15\))59.5 692.4 ms
(interval of dim \(0,1\):)59.5 672.4 ms
(      x0 in [-0.4000000000000000222,-0.2999999999999999889])59.5 662.4 ms
(__________)59.5 652.4 ms
0 0 1 r
(### ### ###)59.5 642.4 ms
(### RESULT of JOIN \(des 0\) ###)59.5 632.4 ms
0 g
(__________T1+ abstract__________)59.5 622.4 ms
(\(0\) := -0.64999999999999991118 + [u]0.35000000000000008882.\(x16\))59.5 612.4 ms
(\(1\) := -12.099999999999999645 + [u]7.900000000000003908.\(x17\))59.5 592.4 ms
(interval of dim \(0,0\):)59.5 572.4 ms
(__________)59.5 562.4 ms
0 0 1 r
(### ### ###)59.5 552.4 ms
(### MEET TCONS ARRAY \(des 0\) ###)59.5 542.4 ms
0 g
(__________T1+ abstract__________)59.5 532.4 ms
(\(0\) := 0 + 1.\(x0\))59.5 522.4 ms
(\(1\) := [-oo,+oo])59.5 502.4 ms
(interval of dim \(0,1\):)59.5 482.4 ms
(      x0 in [-1,-0.19999999999999998335])59.5 472.4 ms
(__________)59.5 462.4 ms
(array of constraints of size 1)59.5 452.4 ms
( 0: x0 - -\(3/10\) >= 0)59.5 442.4 ms
0 0 1 r
(### ### ###)59.5 432.4 ms
(### MEET LINCONS ARRAY \(des 0\) ###)59.5 422.4 ms
0 g
(__________T1+ abstract__________)59.5 412.4 ms
(\(0\) := 0 + 1.\(x0\))59.5 402.4 ms
(\(1\) := [-oo,+oo])59.5 382.4 ms
(interval of dim \(0,1\):)59.5 362.4 ms
(      x0 in [-1,-0.19999999999999998335])59.5 352.4 ms
(__________)59.5 342.4 ms
(array of constraints of size 2)59.5 332.4 ms
( 0: x0 + [0.2999999999999999889,0.30000000000000004441] >= 0)59.5 322.4 ms
( 1: x0 + 0.30000000000000004441 >= 0)59.5 312.4 ms
0 0 1 r
(### ### ###)59.5 302.4 ms
(### RESULT OF MEET LINCONS ARRAY \(des 0\) ###)59.5 292.4 ms
0 g
(__________T1+ abstract__________)59.5 282.4 ms
(\(0\) := 0 + 1.\(x0\))59.5 272.4 ms
(\(1\) := [-oo,+oo])59.5 252.4 ms
(interval of dim \(0,1\):)59.5 232.4 ms
(      x0 in [-0.30000000000000004441,-0.19999999999999998335])59.5 222.4 ms
(__________)59.5 212.4 ms
0 0 1 r
(### ### ###)59.5 202.4 ms
(### RESULT OF MEET TCONS ARRAY \(des 0\) ###)59.5 192.4 ms
0 g
(__________T1+ abstract__________)59.5 182.4 ms
(\(0\) := 0 + 1.\(x0\))59.5 172.4 ms
(\(1\) := [-oo,+oo])59.5 152.4 ms
(interval of dim \(0,1\):)59.5 132.4 ms
(      x0 in [-0.30000000000000004441,-0.19999999999999998335])59.5 122.4 ms
(__________)59.5 112.4 ms
0 0 1 r
(### ### ###)59.5 102.4 ms
(### JOIN OPERANDS \(des 0\) ###)59.5 92.4 ms
0 g
(__________T1+ abstract__________)59.5 82.4 ms
(\(0\) := -0.64999999999999991118 + [u]0.35000000000000008882.\(x16\))59.5 72.4 ms
(\(1\) := -12.099999999999999645 + [u]7.900000000000003908.\(x17\))59.5 52.4 ms
re sp
%%PageTrailer
%%Page: 15 15
%%BeginPageSetup
sv
0 g
F0 sf
%%EndPageSetup
F1 sf
(examples/InterL10.log                                                        Page 15)59.5 792.4 ms
F0 sf
(interval of dim \(0,0\):)59.5 762.4 ms
(__________)59.5 752.4 ms
(__________T1+ abstract__________)59.5 742.4 ms
(\(0\) := 0 + 1.\(x0\))59.5 732.4 ms
(\(1\) := 0 + 13.\(x0\))59.5 712.4 ms
(interval of dim \(0,1\):)59.5 692.4 ms
(      x0 in [-0.30000000000000004441,-0.19999999999999998335])59.5 682.4 ms
(__________)59.5 672.4 ms
0 0 1 r
(### ### ###)59.5 662.4 ms
(### RESULT of JOIN \(des 0\) ###)59.5 652.4 ms
0 g
(__________T1+ abstract__________)59.5 642.4 ms
(\(0\) := -0.5999999999999999778 + [u]0.4000000000000000222.\(x18\))59.5 632.4 ms
(\(1\) := -11.300000000000000711 + [u]8.7000000000000028422.\(x19\))59.5 612.4 ms
(interval of dim \(0,0\):)59.5 592.4 ms
(__________)59.5 582.4 ms
0 0 1 r
(### ### ###)59.5 572.4 ms
(### MEET TCONS ARRAY \(des 0\) ###)59.5 562.4 ms
0 g
(__________T1+ abstract__________)59.5 552.4 ms
(\(0\) := 0 + 1.\(x0\))59.5 542.4 ms
(\(1\) := [-oo,+oo])59.5 522.4 ms
(interval of dim \(0,1\):)59.5 502.4 ms
(      x0 in [-1,-0.099999999999999991673])59.5 492.4 ms
(__________)59.5 482.4 ms
(array of constraints of size 1)59.5 472.4 ms
( 0: x0 - -\(1/5\) >= 0)59.5 462.4 ms
0 0 1 r
(### ### ###)59.5 452.4 ms
(### MEET LINCONS ARRAY \(des 0\) ###)59.5 442.4 ms
0 g
(__________T1+ abstract__________)59.5 432.4 ms
(\(0\) := 0 + 1.\(x0\))59.5 422.4 ms
(\(1\) := [-oo,+oo])59.5 402.4 ms
(interval of dim \(0,1\):)59.5 382.4 ms
(      x0 in [-1,-0.099999999999999991673])59.5 372.4 ms
(__________)59.5 362.4 ms
(array of constraints of size 2)59.5 352.4 ms
( 0: x0 + [0.19999999999999998335,0.2000000000000000111] >= 0)59.5 342.4 ms
( 1: x0 + 0.2000000000000000111 >= 0)59.5 332.4 ms
0 0 1 r
(### ### ###)59.5 322.4 ms
(### RESULT OF MEET LINCONS ARRAY \(des 0\) ###)59.5 312.4 ms
0 g
(__________T1+ abstract__________)59.5 302.4 ms
(\(0\) := 0 + 1.\(x0\))59.5 292.4 ms
(\(1\) := [-oo,+oo])59.5 272.4 ms
(interval of dim \(0,1\):)59.5 252.4 ms
(      x0 in [-0.2000000000000000111,-0.099999999999999991673])59.5 242.4 ms
(__________)59.5 232.4 ms
0 0 1 r
(### ### ###)59.5 222.4 ms
(### RESULT OF MEET TCONS ARRAY \(des 0\) ###)59.5 212.4 ms
0 g
(__________T1+ abstract__________)59.5 202.4 ms
(\(0\) := 0 + 1.\(x0\))59.5 192.4 ms
(\(1\) := [-oo,+oo])59.5 172.4 ms
(interval of dim \(0,1\):)59.5 152.4 ms
(      x0 in [-0.2000000000000000111,-0.099999999999999991673])59.5 142.4 ms
(__________)59.5 132.4 ms
0 0 1 r
(### ### ###)59.5 122.4 ms
(### JOIN OPERANDS \(des 0\) ###)59.5 112.4 ms
0 g
(__________T1+ abstract__________)59.5 102.4 ms
(\(0\) := -0.5999999999999999778 + [u]0.4000000000000000222.\(x18\))59.5 92.4 ms
(\(1\) := -11.300000000000000711 + [u]8.7000000000000028422.\(x19\))59.5 72.4 ms
(interval of dim \(0,0\):)59.5 52.4 ms
re sp
%%PageTrailer
%%Page: 16 16
%%BeginPageSetup
sv
0 g
F0 sf
%%EndPageSetup
F1 sf
(examples/InterL10.log                                                        Page 16)59.5 792.4 ms
F0 sf
(__________)59.5 772.4 ms
(__________T1+ abstract__________)59.5 762.4 ms
(\(0\) := 0 + 1.\(x0\))59.5 752.4 ms
(\(1\) := 0 + 12.\(x0\) + 2.2204460492503130808e-16.\(x20\))59.5 732.4 ms
(interval of dim \(0,1\):)59.5 712.4 ms
(      x0 in [-0.2000000000000000111,-0.099999999999999991673])59.5 702.4 ms
(__________)59.5 692.4 ms
0 0 1 r
(### ### ###)59.5 682.4 ms
(### RESULT of JOIN \(des 0\) ###)59.5 672.4 ms
0 g
(__________T1+ abstract__________)59.5 662.4 ms
(\(0\) := -0.54999999999999993339 + [u]0.45000000000000006661.\(x21\))59.5 652.4 ms
(\(1\) := -10.600000000000001421 + [u]9.4000000000000021316.\(x22\))59.5 632.4 ms
(interval of dim \(0,0\):)59.5 612.4 ms
(__________)59.5 602.4 ms
0 0 1 r
(### ### ###)59.5 592.4 ms
(### MEET TCONS ARRAY \(des 0\) ###)59.5 582.4 ms
0 g
(__________T1+ abstract__________)59.5 572.4 ms
(\(0\) := 0 + 1.\(x0\))59.5 562.4 ms
(\(1\) := [-oo,+oo])59.5 542.4 ms
(interval of dim \(0,1\):)59.5 522.4 ms
(      x0 in [-1,0])59.5 512.4 ms
(__________)59.5 502.4 ms
(array of constraints of size 1)59.5 492.4 ms
( 0: x0 - -\(1/10\) >= 0)59.5 482.4 ms
0 0 1 r
(### ### ###)59.5 472.4 ms
(### MEET LINCONS ARRAY \(des 0\) ###)59.5 462.4 ms
0 g
(__________T1+ abstract__________)59.5 452.4 ms
(\(0\) := 0 + 1.\(x0\))59.5 442.4 ms
(\(1\) := [-oo,+oo])59.5 422.4 ms
(interval of dim \(0,1\):)59.5 402.4 ms
(      x0 in [-1,0])59.5 392.4 ms
(__________)59.5 382.4 ms
(array of constraints of size 2)59.5 372.4 ms
( 0: x0 + [0.099999999999999991673,0.10000000000000000555] >= 0)59.5 362.4 ms
( 1: x0 + 0.10000000000000000555 >= 0)59.5 352.4 ms
0 0 1 r
(### ### ###)59.5 342.4 ms
(### RESULT OF MEET LINCONS ARRAY \(des 0\) ###)59.5 332.4 ms
0 g
(__________T1+ abstract__________)59.5 322.4 ms
(\(0\) := 0 + 1.\(x0\))59.5 312.4 ms
(\(1\) := [-oo,+oo])59.5 292.4 ms
(interval of dim \(0,1\):)59.5 272.4 ms
(      x0 in [-0.10000000000000000555,0])59.5 262.4 ms
(__________)59.5 252.4 ms
0 0 1 r
(### ### ###)59.5 242.4 ms
(### RESULT OF MEET TCONS ARRAY \(des 0\) ###)59.5 232.4 ms
0 g
(__________T1+ abstract__________)59.5 222.4 ms
(\(0\) := 0 + 1.\(x0\))59.5 212.4 ms
(\(1\) := [-oo,+oo])59.5 192.4 ms
(interval of dim \(0,1\):)59.5 172.4 ms
(      x0 in [-0.10000000000000000555,0])59.5 162.4 ms
(__________)59.5 152.4 ms
0 0 1 r
(### ### ###)59.5 142.4 ms
(### JOIN OPERANDS \(des 0\) ###)59.5 132.4 ms
0 g
(__________T1+ abstract__________)59.5 122.4 ms
(\(0\) := -0.54999999999999993339 + [u]0.45000000000000006661.\(x21\))59.5 112.4 ms
(\(1\) := -10.600000000000001421 + [u]9.4000000000000021316.\(x22\))59.5 92.4 ms
(interval of dim \(0,0\):)59.5 72.4 ms
(__________)59.5 62.4 ms
(__________T1+ abstract__________)59.5 52.4 ms
re sp
%%PageTrailer
%%Page: 17 17
%%BeginPageSetup
sv
0 g
F0 sf
%%EndPageSetup
F1 sf
(examples/InterL10.log                                                        Page 17)59.5 792.4 ms
F0 sf
(\(0\) := 0 + 1.\(x0\))59.5 772.4 ms
(\(1\) := 0 + 11.\(x0\) + 1.1102230246251565404e-16.\(x23\))59.5 752.4 ms
(interval of dim \(0,1\):)59.5 732.4 ms
(      x0 in [-0.10000000000000000555,0])59.5 722.4 ms
(__________)59.5 712.4 ms
0 0 1 r
(### ### ###)59.5 702.4 ms
(### RESULT of JOIN \(des 0\) ###)59.5 692.4 ms
0 g
(__________T1+ abstract__________)59.5 682.4 ms
(\(0\) := -0.5 + [u]0.5.\(x24\))59.5 672.4 ms
(\(1\) := -10 + [u]10.000000000000003553.\(x25\))59.5 652.4 ms
(interval of dim \(0,0\):)59.5 632.4 ms
(__________)59.5 622.4 ms
0 0 1 r
(### ### ###)59.5 612.4 ms
(### MEET TCONS ARRAY \(des 0\) ###)59.5 602.4 ms
0 g
(__________T1+ abstract__________)59.5 592.4 ms
(\(0\) := 0 + 1.\(x0\))59.5 582.4 ms
(\(1\) := [-oo,+oo])59.5 562.4 ms
(interval of dim \(0,0\):)59.5 542.4 ms
(__________)59.5 532.4 ms
(array of constraints of size 1)59.5 522.4 ms
( 0: x0 - 0 >= 0)59.5 512.4 ms
0 0 1 r
(### ### ###)59.5 502.4 ms
(### MEET LINCONS ARRAY \(des 0\) ###)59.5 492.4 ms
0 g
(__________T1+ abstract__________)59.5 482.4 ms
(\(0\) := 0 + 1.\(x0\))59.5 472.4 ms
(\(1\) := [-oo,+oo])59.5 452.4 ms
(interval of dim \(0,0\):)59.5 432.4 ms
(__________)59.5 422.4 ms
(array of constraints of size 2)59.5 412.4 ms
( 0: x0 >= 0)59.5 402.4 ms
( 1: x0 >= 0)59.5 392.4 ms
0 0 1 r
(### ### ###)59.5 382.4 ms
(### RESULT OF MEET LINCONS ARRAY \(des 0\) ###)59.5 372.4 ms
0 g
(__________T1+ abstract__________)59.5 362.4 ms
(\(0\) := 0 + 1.\(x0\))59.5 352.4 ms
(\(1\) := [-oo,+oo])59.5 332.4 ms
(interval of dim \(0,1\):)59.5 312.4 ms
(      x0 in [0,1])59.5 302.4 ms
(__________)59.5 292.4 ms
0 0 1 r
(### ### ###)59.5 282.4 ms
(### RESULT OF MEET TCONS ARRAY \(des 0\) ###)59.5 272.4 ms
0 g
(__________T1+ abstract__________)59.5 262.4 ms
(\(0\) := 0 + 1.\(x0\))59.5 252.4 ms
(\(1\) := [-oo,+oo])59.5 232.4 ms
(interval of dim \(0,1\):)59.5 212.4 ms
(      x0 in [0,1])59.5 202.4 ms
(__________)59.5 192.4 ms
0 0 1 r
(### ### ###)59.5 182.4 ms
(### JOIN OPERANDS \(des 0\) ###)59.5 172.4 ms
0 g
(__________T1+ abstract__________)59.5 162.4 ms
(\(0\) := -0.5 + [u]0.5.\(x24\))59.5 152.4 ms
(\(1\) := -10 + [u]10.000000000000003553.\(x25\))59.5 132.4 ms
(interval of dim \(0,0\):)59.5 112.4 ms
(__________)59.5 102.4 ms
(__________T1+ abstract__________)59.5 92.4 ms
(\(0\) := 0 + 1.\(x0\))59.5 82.4 ms
(\(1\) := 0 + 10.\(x0\))59.5 62.4 ms
re sp
%%PageTrailer
%%Page: 18 18
%%BeginPageSetup
sv
0 g
F0 sf
%%EndPageSetup
F1 sf
(examples/InterL10.log                                                        Page 18)59.5 792.4 ms
F0 sf
(interval of dim \(0,1\):)59.5 772.4 ms
(      x0 in [0,1])59.5 762.4 ms
(__________)59.5 752.4 ms
0 0 1 r
(### ### ###)59.5 742.4 ms
(### RESULT of JOIN \(des 0\) ###)59.5 732.4 ms
0 g
(__________T1+ abstract__________)59.5 722.4 ms
(\(0\) := 0 + [u]1.\(x26\))59.5 712.4 ms
(\(1\) := -5.0000000000000017764 + [u]15.000000000000001776.\(x27\))59.5 692.4 ms
(interval of dim \(0,0\):)59.5 672.4 ms
(__________)59.5 662.4 ms
0 0 1 r
(### ### ###)59.5 652.4 ms
(### MEET TCONS ARRAY \(des 0\) ###)59.5 642.4 ms
0 g
(__________T1+ abstract__________)59.5 632.4 ms
(\(0\) := 0 + [u]1.\(x26\))59.5 622.4 ms
(\(1\) := -5.0000000000000017764 + [u]15.000000000000001776.\(x27\))59.5 602.4 ms
(interval of dim \(0,0\):)59.5 582.4 ms
(__________)59.5 572.4 ms
(array of constraints of size 1)59.5 562.4 ms
( 0: x1 - 1 = 0)59.5 552.4 ms
0 0 1 r
(### ### ###)59.5 542.4 ms
(### MEET LINCONS ARRAY \(des 0\) ###)59.5 532.4 ms
0 g
(__________T1+ abstract__________)59.5 522.4 ms
(\(0\) := 0 + [u]1.\(x26\))59.5 512.4 ms
(\(1\) := -5.0000000000000017764 + [u]15.000000000000001776.\(x27\))59.5 492.4 ms
(interval of dim \(0,0\):)59.5 472.4 ms
(__________)59.5 462.4 ms
(array of constraints of size 2)59.5 452.4 ms
( 0: x1 - 1 = 0)59.5 442.4 ms
( 1: -x1 + 1 = 0)59.5 432.4 ms
0 0 1 r
(### ### ###)59.5 422.4 ms
(### RESULT OF MEET LINCONS ARRAY \(des 0\) ###)59.5 412.4 ms
0 g
(__________T1+ abstract__________)59.5 402.4 ms
(\(0\) := 0 + [u]1.\(x26\))59.5 392.4 ms
(\(1\) := [0.99999999999999911182,1.0000000000000008882] + 0.\(x27\))59.5 372.4 ms
(interval of dim \(0,1\):)59.5 352.4 ms
(     x27 in [0.4000000000000000222,0.40000000000000007772])59.5 342.4 ms
(__________)59.5 332.4 ms
0 0 1 r
(### ### ###)59.5 322.4 ms
(### RESULT OF MEET TCONS ARRAY \(des 0\) ###)59.5 312.4 ms
0 g
(__________T1+ abstract__________)59.5 302.4 ms
(\(0\) := 0 + [u]1.\(x26\))59.5 292.4 ms
(\(1\) := [0.99999999999999911182,1.0000000000000008882] + 0.\(x27\))59.5 272.4 ms
(interval of dim \(0,1\):)59.5 252.4 ms
(     x27 in [0.4000000000000000222,0.40000000000000007772])59.5 242.4 ms
(__________)59.5 232.4 ms
(\033[32mAnnotated program after forward analysis\033[m)59.5 222.4 ms
(var x : real, y : real;)59.5 212.4 ms
(begin)59.5 202.4 ms
(  /* \033[31m\(L5 C5\) top\033[m */)59.5 192.4 ms
(  assume x >= -1 and x <= 1; /* \033[31m\(L6 C26\) [|x+1.>=0; -x+1.>=0|]\033[m */)59.5 182.4 ms
(  if x >= 0 then)59.5 172.4 ms
(     /* \033[31m\(L7 C14\) [|x>=0; -x+1.>=0|]\033[m */)59.5 162.4 ms
(     y = 10 * x; /* \033[31m\(L8 C9\) [|x>=0; -x+1.>=0; y>=0; -y+10.>=0|]\033[m */)59.5 152.4 ms
(  else)59.5 142.4 ms
(    /* \033[31m\(L9 C4\) [|x+1.>=0; -x>=0|]\033[m */)59.5 132.4 ms
(    if x >= -1/10 then)59.5 122.4 ms
(       /* \033[31m\(L10 C18\) [|x+0.1>=0; -x>=0|]\033[m */)59.5 112.4 ms
(       y = 11 * x; /* \033[31m\(L11 C9\))59.5 102.4 ms
(                      [|x+0.1>=0; -x>=0; y+1.1>=0; -y+1.11022302463e-16>=0|]\033[m */)59.5 92.4 ms
(    else)59.5 82.4 ms
(      /* \033[31m\(L12 C4\) [|x+1.>=0; -x-0.1>=0|]\033[m */)59.5 72.4 ms
(      if x >= -1/5 then)59.5 62.4 ms
(         /* \033[31m\(L13 C18\) [|x+0.2>=0; -x-0.1>=0|]\033[m */)59.5 52.4 ms
re sp
%%PageTrailer
%%Page: 19 19
%%BeginPageSetup
sv
0 g
F0 sf
%%EndPageSetup
F1 sf
(examples/InterL10.log                                                        Page 19)59.5 792.4 ms
F0 sf
(         y = 12 * x; /* \033[31m\(L14 C9\))59.5 772.4 ms
(                        [|x+0.2>=0; -x-0.1>=0; y+2.4>=0; -y-1.2>=0|]\033[m */)59.5 762.4 ms
(      else)59.5 752.4 ms
(        /* \033[31m\(L15 C4\) [|x+1.>=0; -x-0.2>=0|]\033[m */)59.5 742.4 ms
(        if x >= -3/10 then)59.5 732.4 ms
(           /* \033[31m\(L16 C18\) [|x+0.3>=0; -x-0.2>=0|]\033[m */)59.5 722.4 ms
(           y = 13 * x; /* \033[31m\(L17 C9\))59.5 712.4 ms
(                          [|x+0.3>=0; -x-0.2>=0; y+3.9>=0; -y-2.6>=0|]\033[m */)59.5 702.4 ms
(        else)59.5 692.4 ms
(          /* \033[31m\(L18 C4\) [|x+1.>=0; -x-0.3>=0|]\033[m */)59.5 682.4 ms
(          if x >= -2/5 then)59.5 672.4 ms
(             /* \033[31m\(L19 C18\) [|x+0.4>=0; -x-0.3>=0|]\033[m */)59.5 662.4 ms
(             y = 14 * x; /* \033[31m\(L20 C9\))59.5 652.4 ms
(                            [|x+0.4>=0; -x-0.3>=0; y+5.6>=0; -y-4.2>=0|]\033[m */)59.5 642.4 ms
(          else)59.5 632.4 ms
(            /* \033[31m\(L21 C4\) [|x+1.>=0; -x-0.4>=0|]\033[m */)59.5 622.4 ms
(            if x >= -1/2 then)59.5 612.4 ms
(               /* \033[31m\(L22 C18\) [|x+0.5>=0; -x-0.4>=0|]\033[m */)59.5 602.4 ms
(               y = 15 * x; /* \033[31m\(L23 C9\))59.5 592.4 ms
(                              [|x+0.5>=0; -x-0.4>=0; y+7.5>=0; -y-6.>=0|]\033[m */)59.5 582.4 ms
(            else)59.5 572.4 ms
(              /* \033[31m\(L24 C4\) [|x+1.>=0; -x-0.5>=0|]\033[m */)59.5 562.4 ms
(              if x >= -3/5 then)59.5 552.4 ms
(                 /* \033[31m\(L25 C18\) [|x+0.6>=0; -x-0.5>=0|]\033[m */)59.5 542.4 ms
(                 y = 16 * x; /* \033[31m\(L26 C9\))59.5 532.4 ms
(                                [|x+0.6>=0; -x-0.5>=0; y+9.6>=0; -y-8.>=0|]\033[m */)59.5 522.4 ms
(              else)59.5 512.4 ms
(                /* \033[31m\(L27 C4\) [|x+1.>=0; -x-0.6>=0|]\033[m */)59.5 502.4 ms
(                if x >= -7/10 then)59.5 492.4 ms
(                   /* \033[31m\(L28 C18\) [|x+0.7>=0; -x-0.6>=0|]\033[m */)59.5 482.4 ms
(                   y = 17 * x; /* \033[31m\(L29 C9\))59.5 472.4 ms
(                                  [|x+0.7>=0; -x-0.6>=0; y+11.9>=0;)59.5 462.4 ms
(                                    -y-10.2>=0|]\033[m */)59.5 452.4 ms
(                else)59.5 442.4 ms
(                  /* \033[31m\(L30 C4\) [|x+1.>=0; -x-0.7>=0|]\033[m */)59.5 432.4 ms
(                  if x >= -4/5 then)59.5 422.4 ms
(                     /* \033[31m\(L31 C18\) [|x+0.8>=0; -x-0.7>=0|]\033[m */)59.5 412.4 ms
(                     y = 18 * x; /* \033[31m\(L32 C9\))59.5 402.4 ms
(                                    [|x+0.8>=0; -x-0.7>=0; y+14.4>=0;)59.5 392.4 ms
(                                      -y-12.6>=0|]\033[m */)59.5 382.4 ms
(                  else)59.5 372.4 ms
(                    /* \033[31m\(L33 C4\) [|x+1.>=0; -x-0.8>=0|]\033[m */)59.5 362.4 ms
(                    if x >= -9/10 then)59.5 352.4 ms
(                       /* \033[31m\(L34 C18\) [|x+0.9>=0; -x-0.8>=0|]\033[m */)59.5 342.4 ms
(                       y = 19 * x; /* \033[31m\(L35 C9\))59.5 332.4 ms
(                                      [|x+0.9>=0; -x-0.8>=0; y+17.1>=0;)59.5 322.4 ms
(                                        -y-15.2>=0|]\033[m */)59.5 312.4 ms
(                    else)59.5 302.4 ms
(                      /* \033[31m\(L36 C4\) [|x+1.>=0; -x-0.9>=0|]\033[m */)59.5 292.4 ms
(                      y = 20 * x; /* \033[31m\(L37 C9\))59.5 282.4 ms
(                                     [|x+1.>=0; -x-0.9>=0; y+20.>=0;)59.5 272.4 ms
(                                       -y-18.>=0|]\033[m */)59.5 262.4 ms
(                    endif; /* \033[31m\(L38 C6\))59.5 252.4 ms
(                              [|x+1.>=0; -x-0.8>=0; y+20.>=0; -y-15.2>=0|]\033[m */)59.5 242.4 ms
(                  endif; /* \033[31m\(L39 C6\))59.5 232.4 ms
(                            [|x+1.>=0; -x-0.7>=0; y+20.>=0; -y-12.6>=0|]\033[m */)59.5 222.4 ms
(                endif; /* \033[31m\(L40 C6\))59.5 212.4 ms
(                          [|x+1.>=0; -x-0.6>=0; y+20.>=0; -y-10.2>=0|]\033[m */)59.5 202.4 ms
(              endif; /* \033[31m\(L41 C6\))59.5 192.4 ms
(                        [|x+1.>=0; -x-0.5>=0; y+20.>=0; -y-8.>=0|]\033[m */)59.5 182.4 ms
(            endif; /* \033[31m\(L42 C6\))59.5 172.4 ms
(                      [|x+1.>=0; -x-0.4>=0; y+20.>=0; -y-6.>=0|]\033[m */)59.5 162.4 ms
(          endif; /* \033[31m\(L43 C6\))59.5 152.4 ms
(                    [|x+1.>=0; -x-0.3>=0; y+20.>=0; -y-4.2>=0|]\033[m */)59.5 142.4 ms
(        endif; /* \033[31m\(L44 C6\))59.5 132.4 ms
(                  [|x+1.>=0; -x-0.2>=0; y+20.>=0; -y-2.6>=0|]\033[m */)59.5 122.4 ms
(      endif; /* \033[31m\(L45 C6\) [|x+1.>=0; -x-0.1>=0; y+20.>=0; -y-1.2>=0|]\033[m */)59.5 112.4 ms
(    endif; /* \033[31m\(L46 C6\))59.5 102.4 ms
(              [|x+1.>=0; -x>=0; y+20.>=0; -y+3.5527136788e-15>=0|]\033[m */)59.5 92.4 ms
(  endif; /* \033[31m\(L47 C6\) [|x+1.>=0; -x+1.>=0; y+20.>=0; -y+10.>=0|]\033[m */)59.5 82.4 ms
(  assume y == 1; /* \033[31m\(L48 C14\))59.5 72.4 ms
(                    [|x+1.>=0; -x+1.>=0; y-1.>=0; -y+1.>=0|]\033[m */)59.5 62.4 ms
(end)59.5 52.4 ms
re sp
%%PageTrailer
%%Page: 20 20
%%BeginPageSetup
sv
0 g
F0 sf
%%EndPageSetup
F1 sf
(examples/InterL10.log                                                        Page 20)59.5 792.4 ms
F0 sf
0 0 1 r
(### ### ###)59.5 762.4 ms
0 g
(********* free 93d3890*********)59.5 752.4 ms
(********* free 93d37f0*********)59.5 742.4 ms
(********* free 93d23c8*********)59.5 732.4 ms
(********* free 93d1de0*********)59.5 722.4 ms
(********* free 93d0470*********)59.5 712.4 ms
(********* free 93d03d0*********)59.5 702.4 ms
(********* free 93cea80*********)59.5 692.4 ms
(********* free 93ce9e0*********)59.5 682.4 ms
(********* free 93ccf40*********)59.5 672.4 ms
(********* free 93ccfc0*********)59.5 662.4 ms
(********* free 93cb688*********)59.5 652.4 ms
(********* free 93cb5e8*********)59.5 642.4 ms
(********* free 93c9b18*********)59.5 632.4 ms
(********* free 93c9b98*********)59.5 622.4 ms
(********* free 93c8788*********)59.5 612.4 ms
(********* free 93c8190*********)59.5 602.4 ms
(********* free 93c76f8*********)59.5 592.4 ms
(********* free 93c6d30*********)59.5 582.4 ms
(********* free 93c6758*********)59.5 572.4 ms
(********* free 93c57b8*********)59.5 562.4 ms
(********* free 93c4ce8*********)59.5 552.4 ms
(********* free 93c4170*********)59.5 542.4 ms
(********* free 93c3710*********)59.5 532.4 ms
(********* free 93c2c20*********)59.5 522.4 ms
(********* free 93c2670*********)59.5 512.4 ms
(********* free 93c13a8*********)59.5 502.4 ms
(********* free 93c1958*********)59.5 492.4 ms
(********* free 93c13d0*********)59.5 482.4 ms
re sp
%%PageTrailer
%%Trailer
%%Pages: 20
%%EOF
